<?xml version="1.0" encoding="UTF-8" standalone="no"?>
<!DOCTYPE svg PUBLIC "-//W3C//DTD SVG 1.1//EN" "http://www.w3.org/Graphics/SVG/1.1/DTD/svg11.dtd">
<!-- Created with Vectornator (http://vectornator.io/) -->
<svg height="100%" stroke-miterlimit="10" style="fill-rule:nonzero;clip-rule:evenodd;stroke-linecap:round;stroke-linejoin:round;" version="1.1" viewBox="0 0 94 100.02" width="100%" xml:space="preserve" xmlns="http://www.w3.org/2000/svg" xmlns:vectornator="http://vectornator.io" xmlns:xlink="http://www.w3.org/1999/xlink">
<defs/>
<g id="Default" vectornator:layerName="Default">
<path d="M46.6225 78.1645C45.1779 78.162 43.7574 77.7951 42.4922 77.098L17.4383 63.347C14.6908 61.8403 12.9818 58.9571 12.9787 55.8236L12.9787 28.9229C12.9818 25.7894 14.6908 22.9063 17.4383 21.3996L42.4922 7.64142C45.065 6.23053 48.18 6.23053 50.7528 7.64142L75.8067 21.3924C78.5564 22.9003 80.2658 25.7869 80.2663 28.9229L80.2663 55.8236C80.2632 58.9571 78.5541 61.8403 75.8067 63.347L50.7528 77.1051C49.4869 77.7998 48.0664 78.1642 46.6225 78.1645ZM46.6225 9.4453C45.6582 9.44808 44.7103 9.6943 43.8666 10.1611L18.8127 23.9121C16.9834 24.9164 15.8453 26.8362 15.842 28.9229L15.842 55.8236C15.8453 57.9104 16.9834 59.8302 18.8127 60.8344L43.8666 74.5854C45.583 75.5278 47.662 75.5278 49.3784 74.5854L74.4323 60.8344C76.2615 59.8302 77.3997 57.9104 77.403 55.8236L77.403 28.9229C77.3997 26.8362 76.2615 24.9164 74.4323 23.9121L49.3784 10.1611C48.5347 9.6943 47.5867 9.44808 46.6225 9.4453Z" fill="#000000" fill-rule="nonzero" opacity="1" stroke="none"/>
</g>
<g id="Untitled" vectornator:layerName="Untitled" visibility="hidden">
<path d="M39.5286 60.1544C31.5901 60.1544 25.8635 53.4185 25.8635 44.1342C25.8635 35.9308 32.6209 24.8642 39.5286 24.8642C42.392 24.8642 45.7778 27.162 48.6053 31.0131C51.4518 34.8077 53.0501 39.3924 53.1794 44.1342C53.1794 53.4185 47.4385 60.1544 39.5286 60.1544ZM39.5286 27.7275C35.4699 27.7275 28.7268 35.6731 28.7268 44.1342C28.7268 51.8794 33.165 57.2911 39.5215 57.2911C45.878 57.2911 50.309 51.8794 50.309 44.1342C50.3161 35.8378 43.4872 27.7275 39.5286 27.7275Z" fill="#000000" fill-rule="nonzero" opacity="1" stroke="none"/>
<path d="M54.5538 60.1544C51.5796 60.2062 48.6356 59.5511 45.9639 58.2431L47.2667 55.6876C49.5328 56.7892 52.0275 57.3386 54.5467 57.2911C62.8502 57.2911 70.9605 50.4621 70.9605 46.4964C70.9605 42.5307 63.0149 35.7089 54.5538 35.7089C53.0826 35.7002 51.616 35.8733 50.1873 36.2243L49.4715 33.4541C51.1287 33.0399 52.8313 32.8355 54.5395 32.8456C62.793 32.8456 73.8238 39.5959 73.8238 46.4964C73.8238 49.3597 71.526 52.7527 67.6749 55.5731C63.8846 58.4285 59.2977 60.03 54.5538 60.1544Z" fill="#000000" fill-rule="nonzero" opacity="1" stroke="none"/>
<g fill="#000000" opacity="1" stroke="none">
<path d="M30.2216 93.3016L30.2216 81.5116L37.1876 81.5116L37.1876 83.0596L32.0576 83.0596L32.0576 86.3716L36.3956 86.3716L36.3956 87.9196L32.0576 87.9196L32.0576 91.7536L37.3676 91.7536L37.3676 93.3016L30.2216 93.3016Z"/>
<path d="M42.6776 97.2616C41.9696 97.2616 41.3396 97.1731 40.7876 96.9961C40.2356 96.8191 39.8036 96.5596 39.4916 96.2176C39.1796 95.8756 39.0236 95.4496 39.0236 94.9396C39.0236 94.5616 39.1361 94.2091 39.3611 93.8821C39.5861 93.5551 39.8996 93.2656 40.3016 93.0136L40.3016 92.9416C40.0796 92.7916 39.8921 92.5981 39.7391 92.3611C39.5861 92.1241 39.5096 91.8316 39.5096 91.4836C39.5096 91.1296 39.6116 90.8101 39.8156 90.5251C40.0196 90.2401 40.2416 90.0136 40.4816 89.8456L40.4816 89.7736C40.1876 89.5456 39.9221 89.2276 39.6851 88.8196C39.4481 88.4116 39.3296 87.9496 39.3296 87.4336C39.3296 86.7736 39.4871 86.2081 39.8021 85.7371C40.1171 85.2661 40.5326 84.9061 41.0486 84.6571C41.5646 84.4081 42.1256 84.2836 42.7316 84.2836C42.9776 84.2836 43.2101 84.3031 43.4291 84.3421C43.6481 84.3811 43.8416 84.4336 44.0096 84.4996L47.1236 84.4996L47.1236 85.8676L45.4316 85.8676C45.6056 86.0476 45.7481 86.2786 45.8591 86.5606C45.9701 86.8426 46.0256 87.1516 46.0256 87.4876C46.0256 88.1296 45.8786 88.6756 45.5846 89.1256C45.2906 89.5756 44.8946 89.9191 44.3966 90.1561C43.8986 90.3931 43.3436 90.5116 42.7316 90.5116C42.5336 90.5116 42.3281 90.4891 42.1151 90.4441C41.9021 90.3991 41.6936 90.3346 41.4896 90.2506C41.3516 90.3706 41.2361 90.4996 41.1431 90.6376C41.0501 90.7756 41.0036 90.9556 41.0036 91.1776C41.0036 91.4356 41.1116 91.6441 41.3276 91.8031C41.5436 91.9621 41.9276 92.0416 42.4796 92.0416L44.1086 92.0416C45.1526 92.0416 45.9401 92.2111 46.4711 92.5501C47.0021 92.8891 47.2676 93.4336 47.2676 94.1836C47.2676 94.7476 47.0801 95.2621 46.7051 95.7271C46.3301 96.1921 45.7991 96.5641 45.1121 96.8431C44.4251 97.1221 43.6136 97.2616 42.6776 97.2616ZM42.9476 96.0556C43.4576 96.0556 43.9031 95.9821 44.2841 95.8351C44.6651 95.6881 44.9636 95.4931 45.1796 95.2501C45.3956 95.0071 45.5036 94.7476 45.5036 94.4716C45.5036 94.0996 45.3626 93.8446 45.0806 93.7066C44.7986 93.5686 44.3906 93.4996 43.8566 93.4996L42.5156 93.4996C42.3116 93.4996 42.1121 93.4891 41.9171 93.4681C41.7221 93.4471 41.5316 93.4156 41.3456 93.3736C41.0756 93.5716 40.8791 93.7801 40.7561 93.9991C40.6331 94.2181 40.5716 94.4416 40.5716 94.6696C40.5716 95.1016 40.7846 95.4406 41.2106 95.6866C41.6366 95.9326 42.2156 96.0556 42.9476 96.0556ZM42.7316 89.3416C43.0376 89.3416 43.3166 89.2651 43.5686 89.1121C43.8206 88.9591 44.0231 88.7401 44.1761 88.4551C44.3291 88.1701 44.4056 87.8296 44.4056 87.4336C44.4056 87.0376 44.3306 86.7016 44.1806 86.4256C44.0306 86.1496 43.8296 85.9366 43.5776 85.7866C43.3256 85.6366 43.0436 85.5616 42.7316 85.5616C42.2636 85.5616 41.8676 85.7236 41.5436 86.0476C41.2196 86.3716 41.0576 86.8336 41.0576 87.4336C41.0576 87.8296 41.1341 88.1701 41.2871 88.4551C41.4401 88.7401 41.6426 88.9591 41.8946 89.1121C42.1466 89.2651 42.4256 89.3416 42.7316 89.3416Z"/>
<path d="M51.9116 97.2616C51.2036 97.2616 50.5736 97.1731 50.0216 96.9961C49.4696 96.8191 49.0376 96.5596 48.7256 96.2176C48.4136 95.8756 48.2576 95.4496 48.2576 94.9396C48.2576 94.5616 48.3701 94.2091 48.5951 93.8821C48.8201 93.5551 49.1336 93.2656 49.5356 93.0136L49.5356 92.9416C49.3136 92.7916 49.1261 92.5981 48.9731 92.3611C48.8201 92.1241 48.7436 91.8316 48.7436 91.4836C48.7436 91.1296 48.8456 90.8101 49.0496 90.5251C49.2536 90.2401 49.4756 90.0136 49.7156 89.8456L49.7156 89.7736C49.4216 89.5456 49.1561 89.2276 48.9191 88.8196C48.6821 88.4116 48.5636 87.9496 48.5636 87.4336C48.5636 86.7736 48.7211 86.2081 49.0361 85.7371C49.3511 85.2661 49.7666 84.9061 50.2826 84.6571C50.7986 84.4081 51.3596 84.2836 51.9656 84.2836C52.2116 84.2836 52.4441 84.3031 52.6631 84.3421C52.8821 84.3811 53.0756 84.4336 53.2436 84.4996L56.3576 84.4996L56.3576 85.8676L54.6656 85.8676C54.8396 86.0476 54.9821 86.2786 55.0931 86.5606C55.2041 86.8426 55.2596 87.1516 55.2596 87.4876C55.2596 88.1296 55.1126 88.6756 54.8186 89.1256C54.5246 89.5756 54.1286 89.9191 53.6306 90.1561C53.1326 90.3931 52.5776 90.5116 51.9656 90.5116C51.7676 90.5116 51.5621 90.4891 51.3491 90.4441C51.1361 90.3991 50.9276 90.3346 50.7236 90.2506C50.5856 90.3706 50.4701 90.4996 50.3771 90.6376C50.2841 90.7756 50.2376 90.9556 50.2376 91.1776C50.2376 91.4356 50.3456 91.6441 50.5616 91.8031C50.7776 91.9621 51.1616 92.0416 51.7136 92.0416L53.3426 92.0416C54.3866 92.0416 55.1741 92.2111 55.7051 92.5501C56.2361 92.8891 56.5016 93.4336 56.5016 94.1836C56.5016 94.7476 56.3141 95.2621 55.9391 95.7271C55.5641 96.1921 55.0331 96.5641 54.3461 96.8431C53.6591 97.1221 52.8476 97.2616 51.9116 97.2616ZM52.1816 96.0556C52.6916 96.0556 53.1371 95.9821 53.5181 95.8351C53.8991 95.6881 54.1976 95.4931 54.4136 95.2501C54.6296 95.0071 54.7376 94.7476 54.7376 94.4716C54.7376 94.0996 54.5966 93.8446 54.3146 93.7066C54.0326 93.5686 53.6246 93.4996 53.0906 93.4996L51.7496 93.4996C51.5456 93.4996 51.3461 93.4891 51.1511 93.4681C50.9561 93.4471 50.7656 93.4156 50.5796 93.3736C50.3096 93.5716 50.1131 93.7801 49.9901 93.9991C49.8671 94.2181 49.8056 94.4416 49.8056 94.6696C49.8056 95.1016 50.0186 95.4406 50.4446 95.6866C50.8706 95.9326 51.4496 96.0556 52.1816 96.0556ZM51.9656 89.3416C52.2716 89.3416 52.5506 89.2651 52.8026 89.1121C53.0546 88.9591 53.2571 88.7401 53.4101 88.4551C53.5631 88.1701 53.6396 87.8296 53.6396 87.4336C53.6396 87.0376 53.5646 86.7016 53.4146 86.4256C53.2646 86.1496 53.0636 85.9366 52.8116 85.7866C52.5596 85.6366 52.2776 85.5616 51.9656 85.5616C51.4976 85.5616 51.1016 85.7236 50.7776 86.0476C50.4536 86.3716 50.2916 86.8336 50.2916 87.4336C50.2916 87.8296 50.3681 88.1701 50.5211 88.4551C50.6741 88.7401 50.8766 88.9591 51.1286 89.1121C51.3806 89.2651 51.6596 89.3416 51.9656 89.3416Z"/>
<path d="M60.5156 93.5176C59.9036 93.5176 59.3051 93.4006 58.7201 93.1666C58.1351 92.9326 57.6296 92.6416 57.2036 92.2936L58.0676 91.1236C58.4576 91.4236 58.8521 91.6666 59.2511 91.8526C59.6501 92.0386 60.0896 92.1316 60.5696 92.1316C61.0916 92.1316 61.4801 92.0161 61.7351 91.7851C61.9901 91.5541 62.1176 91.2736 62.1176 90.9436C62.1176 90.6736 62.0216 90.4471 61.8296 90.2641C61.6376 90.0811 61.3931 89.9236 61.0961 89.7916C60.7991 89.6596 60.4916 89.5336 60.1736 89.4136C59.7776 89.2636 59.3846 89.0851 58.9946 88.8781C58.6046 88.6711 58.2806 88.4056 58.0226 88.0816C57.7646 87.7576 57.6356 87.3496 57.6356 86.8576C57.6356 86.1136 57.9161 85.4986 58.4771 85.0126C59.0381 84.5266 59.8016 84.2836 60.7676 84.2836C61.3556 84.2836 61.8896 84.3856 62.3696 84.5896C62.8496 84.7936 63.2636 85.0336 63.6116 85.3096L62.7656 86.4436C62.4596 86.2156 62.1476 86.0296 61.8296 85.8856C61.5116 85.7416 61.1696 85.6696 60.8036 85.6696C60.3116 85.6696 59.9486 85.7776 59.7146 85.9936C59.4806 86.2096 59.3636 86.4676 59.3636 86.7676C59.3636 87.0196 59.4536 87.2266 59.6336 87.3886C59.8136 87.5506 60.0476 87.6916 60.3356 87.8116C60.6236 87.9316 60.9296 88.0516 61.2536 88.1716C61.6616 88.3276 62.0651 88.5061 62.4641 88.7071C62.8631 88.9081 63.1931 89.1751 63.4541 89.5081C63.7151 89.8411 63.8456 90.2836 63.8456 90.8356C63.8456 91.3276 63.7181 91.7761 63.4631 92.1811C63.2081 92.5861 62.8331 92.9101 62.3381 93.1531C61.8431 93.3961 61.2356 93.5176 60.5156 93.5176Z"/>
</g>
</g>
<g id="Layer-2" vectornator:layerName="Layer 2" visibility="hidden">
<g opacity="1">
<path d="M75.8113 21.441L50.7558 7.68662C48.168 6.26637 45.0777 6.26637 42.4884 7.68662L17.4337 21.4417C14.6848 22.9507 12.9775 25.8363 12.9775 28.9717L12.9775 55.8677C12.9775 59.0038 14.6848 61.8887 17.4337 63.3977L42.4884 77.1521C43.7827 77.8629 45.2029 78.218 46.6225 78.218C48.042 78.218 49.4623 77.8629 50.7565 77.1521L75.8106 63.3977C78.5595 61.8887 80.2675 59.0038 80.2675 55.8677L80.2675 28.9717C80.2675 25.8363 78.5595 22.9507 75.8113 21.441ZM77.4041 55.8677C77.4041 57.9587 76.2659 59.8822 74.4326 60.888L49.3778 74.6423C47.6526 75.5887 45.5917 75.5887 43.8665 74.6423L18.8117 60.888C16.9791 59.8815 15.8409 57.9587 15.8409 55.8677L15.8409 28.9717C15.8409 26.8814 16.9791 24.958 18.8109 23.9522L43.8657 10.1978C44.7291 9.72393 45.6761 9.48698 46.6225 9.48698C47.5688 9.48698 48.5159 9.72393 49.3785 10.1971L74.4333 23.9515C76.2659 24.958 77.4041 26.8814 77.4041 28.9717L77.4041 55.8677Z" fill="#000000" fill-rule="nonzero" opacity="1" stroke="none"/>
<path d="M43.0361 46.6898C42.5722 46.4764 42.109 46.3476 41.6502 46.2653C41.7912 45.5208 41.9766 44.7656 42.2128 44.0039C42.5894 44.0476 42.9738 44.0769 43.3725 44.0769C44.0519 44.0769 44.7634 44.0132 45.5058 43.8865C48.3556 43.399 50.4279 42.1412 51.6635 40.1455C53.9277 36.4917 52.7774 31.3834 51.715 27.8593C50.2876 23.1204 46.7012 20.0401 44.3282 18.0013C44.097 17.803 43.8786 17.6148 43.6768 17.4379C43.0726 16.9089 42.1384 16.2203 40.9894 16.3355C39.8591 16.4508 39.0889 17.2919 38.5441 18.0121C35.516 22.0144 33.9813 26.2365 33.9834 30.5602C33.9848 34.3521 34.6721 39.4511 37.9371 42.205C38.4102 42.6037 38.9221 42.9315 39.4647 43.2036C39.1511 44.2208 38.9128 45.2316 38.7481 46.2273C37.3114 46.3383 36.0673 46.4263 34.8181 45.5351C32.206 43.6767 32.4937 42.4226 32.9297 40.5234C33.2246 39.2406 33.5589 37.7867 32.8552 36.224C32.8338 36.1768 32.8101 36.131 32.7836 36.0866C31.8316 34.4659 30.0756 33.4988 28.1972 33.5711C25.2901 33.6785 23.013 35.3965 21.7853 38.4088C19.5504 43.8922 21.2699 52.3221 25.5399 56.8169C28.0175 59.4248 32.5961 61.0275 36.8912 61.0275C38.1661 61.0275 39.4167 60.8865 40.5793 60.588C43.7677 59.7698 45.9088 57.8599 46.6074 55.2105C47.3849 52.2627 46.2402 48.1666 43.0361 46.6898ZM36.8468 30.5588C36.8461 28.3511 37.3365 26.1599 38.29 24.0059C38.2155 28.1313 38.8634 32.7264 39.5592 36.3844C39.6902 37.0709 40.2901 37.5491 40.9637 37.5491C41.0524 37.5491 41.1426 37.5405 41.2328 37.5233C42.0095 37.3751 42.5199 36.6263 42.3718 35.8496C41.1405 29.3733 40.8327 23.9916 41.4741 20.4581C42.9301 22.6851 44.4449 29.966 45.1199 36.2713C45.1979 37.0057 45.8193 37.5512 46.5416 37.5512C46.5917 37.5512 46.644 37.5483 46.6955 37.5433C47.4815 37.4589 48.0513 36.7537 47.9661 35.9677C47.7113 33.5775 46.9775 27.6682 45.5902 23.1018C46.989 24.6151 48.3026 26.4605 48.9726 28.6847C50.3879 33.3778 50.4716 36.6335 49.231 38.6379C48.4357 39.9221 47.0599 40.716 45.0254 41.0632C43.9445 41.2479 42.9881 41.2586 42.1398 41.1033C42.0367 41.0274 41.9258 40.9601 41.7998 40.9128C41.5951 40.8362 41.3853 40.8133 41.1806 40.8305C40.6695 40.6337 40.2013 40.3681 39.7832 40.0159C37.8912 38.4202 36.8482 35.0622 36.8468 30.5588ZM43.8385 54.4818C43.2974 56.5334 41.3803 57.4268 39.867 57.8148C35.758 58.8714 30.1472 57.5091 27.6159 54.8447C24.0975 51.1416 22.6121 43.9659 24.4368 39.4897C25.2371 37.5262 26.5378 36.4975 28.3024 36.4323C28.3289 36.4309 28.3547 36.4309 28.3812 36.4309C29.1371 36.4309 29.8658 36.8311 30.2732 37.4703C30.5266 38.1038 30.3855 38.809 30.1386 39.8842C29.6525 42.0024 28.9868 44.9023 33.1573 47.8688C35.2634 49.3692 37.3365 49.2074 39.0037 49.08C40.0953 48.9948 41.0367 48.9232 41.8363 49.2912C43.6073 50.108 44.3124 52.6814 43.8385 54.4818Z" fill="#000000" fill-rule="nonzero" opacity="1" stroke="none"/>
<path d="M50.8231 50.7286L48.6011 55.8863C48.289 56.6129 48.6233 57.454 49.3499 57.7676C49.5346 57.847 49.7264 57.885 49.9154 57.885C50.4695 57.885 50.997 57.5607 51.2311 57.0188L53.4531 51.8611C53.7652 51.1345 53.4309 50.2934 52.7043 49.9798C51.977 49.6663 51.1366 50.002 50.8231 50.7286Z" fill="#000000" fill-rule="nonzero" opacity="1" stroke="none"/>
<path d="M67.9613 32.5832C67.6406 32.1809 67.3371 31.8001 67.1194 31.435C66.7336 30.7871 66.4938 30.1171 66.2619 29.4685C65.8066 28.2 65.2926 26.7626 63.6984 25.9387C63.6583 25.9179 63.6168 25.9072 63.576 25.89C63.5445 25.8728 63.5166 25.8513 63.4829 25.837C63.4722 25.832 63.4607 25.8306 63.45 25.8263C63.4385 25.8213 63.4292 25.8134 63.4171 25.8091C61.7584 25.1298 60.3289 25.6688 59.0675 26.1456C58.424 26.3889 57.7575 26.6402 57.0145 26.7669C56.5914 26.8385 56.1347 26.865 55.6508 26.8922C55.2964 26.9122 54.9328 26.9337 54.5541 26.9709C53.7674 27.049 53.1933 27.7498 53.2706 28.5372C53.3443 29.276 53.9664 29.8279 54.6937 29.8279C54.7402 29.8279 54.7882 29.8257 54.8362 29.8207C55.1733 29.7878 55.4969 29.7692 55.8126 29.7513C56.3538 29.7205 56.9128 29.689 57.4941 29.5902C58.5099 29.4177 59.3439 29.1027 60.079 28.825C60.3017 28.7412 60.4971 28.6696 60.6796 28.6059L52.7316 46.4106C52.4094 47.1329 52.733 47.979 53.4553 48.3019C53.645 48.3863 53.8433 48.4271 54.038 48.4271C54.5856 48.4271 55.1082 48.1107 55.3458 47.5781L63.3075 29.7413C63.3884 29.9446 63.4715 30.1729 63.566 30.4349C63.8308 31.1751 64.1315 32.0148 64.6583 32.9003C64.9755 33.4336 65.3556 33.9097 65.7221 34.3692C66.6112 35.4838 67.4516 36.5361 67.6191 38.6071C68.2877 44.0912 66.2024 52.6728 61.5566 57.5421C58.9394 60.2845 55.8419 61.5372 52.36 61.2852C50.5933 61.1535 48.7457 60.6653 47.1558 59.9094C46.4457 59.5701 45.5881 59.8736 45.248 60.588C44.9087 61.3017 45.2123 62.1557 45.9267 62.4958C47.8273 63.3999 50.0364 63.9833 52.1467 64.1401C52.5104 64.1673 52.8704 64.1809 53.2291 64.1809C57.1276 64.1809 60.704 62.5831 63.6268 59.5192C69.0573 53.8297 71.2012 44.3203 70.4682 38.3186C70.2363 35.4337 68.9749 33.8531 67.9613 32.5832Z" fill="#000000" fill-rule="nonzero" opacity="1" stroke="none"/>
</g>
<g fill="#000000" opacity="1" stroke="none">
<path d="M13.1742 93.2374L13.1742 82.9954L9.70018 82.9954L9.70018 81.4474L18.4842 81.4474L18.4842 82.9954L15.0102 82.9954L15.0102 93.2374L13.1742 93.2374Z"/>
<path d="M19.5462 93.2374L19.5462 84.4354L21.0402 84.4354L21.1842 86.0194L21.2382 86.0194C21.5502 85.4494 21.9252 85.0069 22.3632 84.6919C22.8012 84.3769 23.2602 84.2194 23.7402 84.2194C23.9502 84.2194 24.1317 84.2329 24.2847 84.2599C24.4377 84.2869 24.5802 84.3334 24.7122 84.3994L24.3882 85.9834C24.2382 85.9354 24.1002 85.8994 23.9742 85.8754C23.8482 85.8514 23.6922 85.8394 23.5062 85.8394C23.1462 85.8394 22.7697 85.9804 22.3767 86.2624C21.9837 86.5444 21.6462 87.0394 21.3642 87.7474L21.3642 93.2374L19.5462 93.2374Z"/>
<path d="M29.5542 93.4534C28.7562 93.4534 28.0332 93.2704 27.3852 92.9044C26.7372 92.5384 26.2227 92.0119 25.8417 91.3249C25.4607 90.6379 25.2702 89.8114 25.2702 88.8454C25.2702 87.8914 25.4622 87.0694 25.8462 86.3794C26.2302 85.6894 26.7282 85.1569 27.3402 84.7819C27.9522 84.4069 28.6002 84.2194 29.2842 84.2194C30.0582 84.2194 30.7122 84.3934 31.2462 84.7414C31.7802 85.0894 32.1837 85.5754 32.4567 86.1994C32.7297 86.8234 32.8662 87.5494 32.8662 88.3774C32.8662 88.5514 32.8587 88.7239 32.8437 88.8949C32.8287 89.0659 32.8092 89.2054 32.7852 89.3134L26.6922 89.3134L26.6742 88.0534L31.2822 88.0534C31.2822 87.2854 31.1157 86.6914 30.7827 86.2714C30.4497 85.8514 29.9622 85.6414 29.3202 85.6414C28.9362 85.6414 28.5642 85.7509 28.2042 85.9699C27.8442 86.1889 27.5472 86.5339 27.3132 87.0049C27.0792 87.4759 26.9622 88.0894 26.9622 88.8454C26.9622 89.5774 27.0942 90.1774 27.3582 90.6454C27.6222 91.1134 27.9687 91.4614 28.3977 91.6894C28.8267 91.9174 29.2902 92.0314 29.7882 92.0314C30.1902 92.0314 30.5607 91.9714 30.8997 91.8514C31.2387 91.7314 31.5702 91.5694 31.8942 91.3654L32.5242 92.5174C32.1222 92.7814 31.6707 93.0034 31.1697 93.1834C30.6687 93.3634 30.1302 93.4534 29.5542 93.4534Z"/>
<path d="M38.5902 93.4534C37.7922 93.4534 37.0692 93.2704 36.4212 92.9044C35.7732 92.5384 35.2587 92.0119 34.8777 91.3249C34.4967 90.6379 34.3062 89.8114 34.3062 88.8454C34.3062 87.8914 34.4982 87.0694 34.8822 86.3794C35.2662 85.6894 35.7642 85.1569 36.3762 84.7819C36.9882 84.4069 37.6362 84.2194 38.3202 84.2194C39.0942 84.2194 39.7482 84.3934 40.2822 84.7414C40.8162 85.0894 41.2197 85.5754 41.4927 86.1994C41.7657 86.8234 41.9022 87.5494 41.9022 88.3774C41.9022 88.5514 41.8947 88.7239 41.8797 88.8949C41.8647 89.0659 41.8452 89.2054 41.8212 89.3134L35.7282 89.3134L35.7102 88.0534L40.3182 88.0534C40.3182 87.2854 40.1517 86.6914 39.8187 86.2714C39.4857 85.8514 38.9982 85.6414 38.3562 85.6414C37.9722 85.6414 37.6002 85.7509 37.2402 85.9699C36.8802 86.1889 36.5832 86.5339 36.3492 87.0049C36.1152 87.4759 35.9982 88.0894 35.9982 88.8454C35.9982 89.5774 36.1302 90.1774 36.3942 90.6454C36.6582 91.1134 37.0047 91.4614 37.4337 91.6894C37.8627 91.9174 38.3262 92.0314 38.8242 92.0314C39.2262 92.0314 39.5967 91.9714 39.9357 91.8514C40.2747 91.7314 40.6062 91.5694 40.9302 91.3654L41.5602 92.5174C41.1582 92.7814 40.7067 93.0034 40.2057 93.1834C39.7047 93.3634 39.1662 93.4534 38.5902 93.4534Z"/>
<path d="M43.5042 89.3854L43.5042 88.0354L47.7162 88.0354L47.7162 89.3854L43.5042 89.3854Z"/>
<path d="M50.0022 93.2374L50.0022 81.4474L51.8922 81.4474L55.8162 88.4134L57.0582 90.8974L57.1302 90.8974C57.0882 90.2914 57.0387 89.6479 56.9817 88.9669C56.9247 88.2859 56.8962 87.6274 56.8962 86.9914L56.8962 81.4474L58.6422 81.4474L58.6422 93.2374L56.7522 93.2374L52.8282 86.2624L51.5862 83.7874L51.5142 83.7874C51.5622 84.3934 51.6132 85.0264 51.6672 85.6864C51.7212 86.3464 51.7482 86.9974 51.7482 87.6394L51.7482 93.2374L50.0022 93.2374Z"/>
<path d="M64.1682 93.4534C63.2382 93.4534 62.5557 93.1534 62.1207 92.5534C61.6857 91.9534 61.4682 91.0954 61.4682 89.9794L61.4682 84.4354L63.2862 84.4354L63.2862 89.7454C63.2862 90.5074 63.4062 91.0549 63.6462 91.3879C63.8862 91.7209 64.2642 91.8874 64.7802 91.8874C65.1942 91.8874 65.5602 91.7824 65.8782 91.5724C66.1962 91.3624 66.5382 91.0234 66.9042 90.5554L66.9042 84.4354L68.7222 84.4354L68.7222 93.2374L67.2282 93.2374L67.0842 91.9054L67.0302 91.9054C66.6342 92.3734 66.2097 92.7484 65.7567 93.0304C65.3037 93.3124 64.7742 93.4534 64.1682 93.4534Z"/>
<path d="M74.4462 93.4534C73.4682 93.4534 72.7797 93.1684 72.3807 92.5984C71.9817 92.0284 71.7822 91.2874 71.7822 90.3754L71.7822 85.8934L70.5042 85.8934L70.5042 84.5254L71.8722 84.4354L72.0882 82.0054L73.6002 82.0054L73.6002 84.4354L75.9042 84.4354L75.9042 85.8934L73.6002 85.8934L73.6002 90.3844C73.6002 90.9064 73.7022 91.3054 73.9062 91.5814C74.1102 91.8574 74.4402 91.9954 74.8962 91.9954C75.0522 91.9954 75.2172 91.9729 75.3912 91.9279C75.5652 91.8829 75.7182 91.8334 75.8502 91.7794L76.1742 93.1294C75.9342 93.2074 75.6657 93.2809 75.3687 93.3499C75.0717 93.4189 74.7642 93.4534 74.4462 93.4534Z"/>
<path d="M80.1162 93.4534C79.5042 93.4534 78.9057 93.3364 78.3207 93.1024C77.7357 92.8684 77.2302 92.5774 76.8042 92.2294L77.6682 91.0594C78.0582 91.3594 78.4527 91.6024 78.8517 91.7884C79.2507 91.9744 79.6902 92.0674 80.1702 92.0674C80.6922 92.0674 81.0807 91.9519 81.3357 91.7209C81.5907 91.4899 81.7182 91.2094 81.7182 90.8794C81.7182 90.6094 81.6222 90.3829 81.4302 90.1999C81.2382 90.0169 80.9937 89.8594 80.6967 89.7274C80.3997 89.5954 80.0922 89.4694 79.7742 89.3494C79.3782 89.1994 78.9852 89.0209 78.5952 88.8139C78.2052 88.6069 77.8812 88.3414 77.6232 88.0174C77.3652 87.6934 77.2362 87.2854 77.2362 86.7934C77.2362 86.0494 77.5167 85.4344 78.0777 84.9484C78.6387 84.4624 79.4022 84.2194 80.3682 84.2194C80.9562 84.2194 81.4902 84.3214 81.9702 84.5254C82.4502 84.7294 82.8642 84.9694 83.2122 85.2454L82.3662 86.3794C82.0602 86.1514 81.7482 85.9654 81.4302 85.8214C81.1122 85.6774 80.7702 85.6054 80.4042 85.6054C79.9122 85.6054 79.5492 85.7134 79.3152 85.9294C79.0812 86.1454 78.9642 86.4034 78.9642 86.7034C78.9642 86.9554 79.0542 87.1624 79.2342 87.3244C79.4142 87.4864 79.6482 87.6274 79.9362 87.7474C80.2242 87.8674 80.5302 87.9874 80.8542 88.1074C81.2622 88.2634 81.6657 88.4419 82.0647 88.6429C82.4637 88.8439 82.7937 89.1109 83.0547 89.4439C83.3157 89.7769 83.4462 90.2194 83.4462 90.7714C83.4462 91.2634 83.3187 91.7119 83.0637 92.1169C82.8087 92.5219 82.4337 92.8459 81.9387 93.0889C81.4437 93.3319 80.8362 93.4534 80.1162 93.4534Z"/>
</g>
</g>
<g id="Layer-3" vectornator:layerName="Layer 3" visibility="hidden">
<g opacity="1">
<path d="M75.8113 21.4421L50.7558 7.68773C48.168 6.26748 45.0777 6.26748 42.4884 7.68773L17.4337 21.4428C14.6848 22.9518 12.9775 25.8374 12.9775 28.9728L12.9775 55.8688C12.9775 59.0049 14.6848 61.8898 17.4337 63.3988L42.4884 77.1532C43.7827 77.864 45.2029 78.2191 46.6225 78.2191C48.042 78.2191 49.4623 77.864 50.7565 77.1532L75.8106 63.3988C78.5595 61.8898 80.2675 59.0049 80.2675 55.8688L80.2675 28.9728C80.2675 25.8374 78.5595 22.9518 75.8113 21.4421ZM77.4041 55.8688C77.4041 57.9598 76.2659 59.8833 74.4326 60.8891L49.3778 74.6434C47.6526 75.5898 45.5917 75.5898 43.8665 74.6434L18.8117 60.8891C16.9791 59.8826 15.8409 57.9598 15.8409 55.8688L15.8409 28.9728C15.8409 26.8826 16.9791 24.9591 18.8109 23.9533L43.8657 10.1989C44.7291 9.72504 45.6761 9.4881 46.6225 9.4881C47.5688 9.4881 48.5159 9.72504 49.3785 10.1982L74.4333 23.9526C76.2659 24.9591 77.4041 26.8826 77.4041 28.9728L77.4041 55.8688Z" fill="#000000" fill-rule="nonzero" opacity="1" stroke="none"/>
<path d="M33.6348 34.2759C36.3235 34.2759 38.5105 32.0882 38.5105 29.4002C38.5105 26.7115 36.3235 24.5245 33.6348 24.5245C30.9461 24.5245 28.7591 26.7115 28.7591 29.4002C28.7591 32.0889 30.9468 34.2759 33.6348 34.2759ZM33.6348 27.388C34.7444 27.388 35.647 28.2906 35.647 29.4002C35.647 30.5098 34.7444 31.4125 33.6348 31.4125C32.5252 31.4125 31.6225 30.5098 31.6225 29.4002C31.6225 28.2906 32.5252 27.388 33.6348 27.388Z" fill="#000000" fill-rule="nonzero" opacity="1" stroke="none"/>
<path d="M47.9983 33.56C50.6864 33.56 52.8733 31.3724 52.874 28.6844C52.874 25.9956 50.6864 23.8087 47.9983 23.8087C45.3103 23.8087 43.1227 25.9956 43.1227 28.6844C43.1227 31.3731 45.3103 33.56 47.9983 33.56ZM47.9983 26.6721C49.1079 26.6721 50.0106 27.5748 50.0106 28.6844C50.0106 29.7939 49.1079 30.6966 47.9983 30.6966C46.8888 30.6966 45.9861 29.7939 45.9861 28.6844C45.9861 27.5748 46.8888 26.6721 47.9983 26.6721Z" fill="#000000" fill-rule="nonzero" opacity="1" stroke="none"/>
<path d="M41.9988 51.1241C39.3101 51.1241 37.1231 53.3118 37.1231 55.9998C37.1231 56.7901 37.7645 57.4315 38.5548 57.4315C39.3459 57.4315 39.9865 56.7901 39.9865 55.9998C39.9865 54.8902 40.8892 53.9875 41.9988 53.9875C42.7891 53.9875 43.4305 53.3461 43.4305 52.5558C43.4305 51.7655 42.7891 51.1241 41.9988 51.1241Z" fill="#000000" fill-rule="nonzero" opacity="1" stroke="none"/>
<path d="M61.5172 34.3503C58.8292 34.3503 56.6415 36.538 56.6415 39.226C56.6415 40.0163 57.2829 40.6577 58.0732 40.6577C58.8642 40.6577 59.5049 40.017 59.5049 39.226C59.5049 38.1164 60.4076 37.2137 61.5172 37.2137C62.3075 37.2137 62.9489 36.5723 62.9489 35.782C62.9489 34.9917 62.3075 34.3503 61.5172 34.3503Z" fill="#000000" fill-rule="nonzero" opacity="1" stroke="none"/>
<path d="M67.8682 32.8027C69.2047 30.3237 69.136 27.7788 67.6628 25.239C67.2662 24.5539 66.39 24.322 65.7056 24.7185C65.0213 25.1151 64.7886 25.9906 65.1852 26.675C66.0657 28.1919 66.1781 29.5849 65.5467 31.0202C64.2868 30.4289 62.722 30.2191 60.7978 30.3988C56.6945 30.7797 53.2999 34.3933 52.7409 38.7134C48.7765 39.556 45.538 43.0515 44.9094 47.1411L41.9995 47.1411C36.8726 47.1411 33.7164 51.2687 32.9175 55.158C32.7765 55.284 32.4479 55.4758 32.2611 55.5846C31.639 55.9483 30.7864 56.4458 30.737 57.4558C30.7206 57.8052 30.8022 58.4709 31.5424 59.0071C31.8444 59.2261 32.1881 59.6571 32.5854 60.1553C33.8037 61.6837 35.6463 63.993 40.0173 64.8005C40.4662 64.8835 40.9458 64.9243 41.444 64.9243C43.2623 64.9236 45.3382 64.386 47.1572 63.411C49.4143 62.1991 50.9935 60.5175 51.7065 58.594C52.6578 58.5547 54.0251 58.4559 55.018 58.2039C60.0762 56.9225 63.1214 53.4392 63.3741 48.6487C63.387 48.4104 63.4113 48.1756 63.4357 47.9307C63.4715 47.5807 63.5116 47.1855 63.5273 46.7267C66.9333 45.9006 69.209 42.7687 69.209 38.6719C69.209 36.1693 68.7365 34.2766 67.7888 32.9115C67.8138 32.8735 67.846 32.8435 67.8682 32.8027ZM61.9918 44.0694C61.6074 44.0916 61.248 44.267 60.9946 44.5569C60.7419 44.8468 60.6159 45.2262 60.6453 45.6092C60.709 46.4353 60.6496 47.0223 60.5873 47.6437C60.558 47.9343 60.53 48.2142 60.515 48.4977C60.2781 52.9875 57.0131 54.7449 54.315 55.4286C53.2663 55.6941 51.2862 55.755 50.6126 55.7564C49.9226 55.7578 49.3313 56.2511 49.2067 56.929C48.9297 58.4323 47.6898 59.8754 45.8028 60.8876C44.059 61.8233 41.9916 62.2549 40.5377 61.985C37.2183 61.3716 35.9463 59.7774 34.8245 58.37C34.642 58.1416 34.4637 57.9183 34.2819 57.7042C34.8904 57.3005 35.5332 56.7271 35.7029 55.8352C36.2391 53.0269 38.4382 50.0046 41.9995 50.0046L46.2195 50.0046C46.417 50.0046 46.6053 49.9645 46.7764 49.8922C47.2904 49.6745 47.6512 49.1656 47.6519 48.5728C47.6519 44.9113 50.6398 41.6205 54.1769 41.3871C54.2112 41.385 54.2427 41.375 54.2756 41.3707C54.3229 41.3642 54.3694 41.3578 54.4152 41.347C54.4625 41.3356 54.5083 41.3198 54.5534 41.3041C54.5963 41.2891 54.6386 41.2747 54.6787 41.2554C54.723 41.2347 54.7653 41.2103 54.8068 41.186C54.844 41.1638 54.8813 41.1423 54.9156 41.1173C54.955 41.0886 54.9915 41.0571 55.028 41.0242C55.0602 40.9956 55.0917 40.9676 55.1218 40.9362C55.1547 40.9011 55.1833 40.8638 55.2127 40.8259C55.2399 40.7908 55.2664 40.7565 55.29 40.7185C55.3151 40.6784 55.3358 40.6369 55.3573 40.5947C55.3773 40.5539 55.3974 40.5138 55.4138 40.4716C55.431 40.4272 55.4439 40.3814 55.4561 40.3348C55.4683 40.2912 55.4804 40.2475 55.4876 40.2017C55.4962 40.153 55.499 40.1029 55.5026 40.0521C55.5048 40.0206 55.5119 39.9898 55.5119 39.9576C55.5119 36.543 58.0009 33.5328 61.0598 33.2486C62.9417 33.0725 64.241 33.3431 65.0377 34.0697C65.9161 34.87 66.3435 36.3755 66.3435 38.6705C66.3456 41.0478 65.2053 43.8876 61.9918 44.0694Z" fill="#000000" fill-rule="nonzero" opacity="1" stroke="none"/>
<path d="M54.0816 43.6972C51.3936 43.6972 49.206 45.8848 49.206 48.5728C49.206 49.3631 49.8474 50.0046 50.6377 50.0046C51.4287 50.0046 52.0694 49.3631 52.0694 48.5728C52.0694 47.4633 52.9721 46.5606 54.0816 46.5606C54.8719 46.5606 55.5133 45.9192 55.5133 45.1289C55.5133 44.3386 54.8719 43.6972 54.0816 43.6972Z" fill="#000000" fill-rule="nonzero" opacity="1" stroke="none"/>
<path d="M39.0123 41.6842C39.0123 38.9955 36.8253 36.8086 34.1366 36.8086C31.4479 36.8086 29.2609 38.9962 29.2609 41.6842C29.2609 44.373 31.4486 46.5606 34.1366 46.5606C36.8246 46.5606 39.0123 44.3737 39.0123 41.6842ZM32.1243 41.6849C32.1243 40.5754 33.027 39.6727 34.1366 39.6727C35.2455 39.6727 36.1489 40.5754 36.1489 41.6849C36.1489 42.7945 35.2462 43.6979 34.1366 43.6979C33.027 43.6979 32.1243 42.7945 32.1243 41.6849Z" fill="#000000" fill-rule="nonzero" opacity="1" stroke="none"/>
</g>
<g fill="#000000" opacity="1" stroke="none">
<path d="M37.4605 93.2971C36.6565 93.2971 35.893 93.1426 35.17 92.8336C34.447 92.5246 33.8125 92.1001 33.2665 91.5601L34.3465 90.3001C34.7725 90.7201 35.26 91.0576 35.809 91.3126C36.358 91.5676 36.9205 91.6951 37.4965 91.6951C38.2105 91.6951 38.761 91.5406 39.148 91.2316C39.535 90.9226 39.7285 90.5131 39.7285 90.0031C39.7285 89.6431 39.646 89.3551 39.481 89.1391C39.316 88.9231 39.0925 88.7386 38.8105 88.5856C38.5285 88.4326 38.2045 88.2781 37.8385 88.1221L36.1915 87.4021C35.8135 87.2401 35.4415 87.0286 35.0755 86.7676C34.7095 86.5066 34.4065 86.1766 34.1665 85.7776C33.9265 85.3786 33.8065 84.8911 33.8065 84.3151C33.8065 83.6971 33.973 83.1451 34.306 82.6591C34.639 82.1731 35.095 81.7876 35.674 81.5026C36.253 81.2176 36.9145 81.0751 37.6585 81.0751C38.3545 81.0751 39.013 81.2101 39.634 81.4801C40.255 81.7501 40.7845 82.1101 41.2225 82.5601L40.2685 83.7301C39.9025 83.4001 39.5065 83.1421 39.0805 82.9561C38.6545 82.7701 38.1805 82.6771 37.6585 82.6771C37.0585 82.6771 36.5755 82.8136 36.2095 83.0866C35.8435 83.3596 35.6605 83.7331 35.6605 84.2071C35.6605 84.5431 35.752 84.8191 35.935 85.0351C36.118 85.2511 36.358 85.4311 36.655 85.5751C36.952 85.7191 37.2565 85.8601 37.5685 85.9981L39.1975 86.6911C39.6655 86.8831 40.078 87.1156 40.435 87.3886C40.792 87.6616 41.0755 87.9976 41.2855 88.3966C41.4955 88.7956 41.6005 89.2831 41.6005 89.8591C41.6005 90.4891 41.4355 91.0651 41.1055 91.5871C40.7755 92.1091 40.3 92.5246 39.679 92.8336C39.058 93.1426 38.3185 93.2971 37.4605 93.2971Z"/>
<path d="M47.1805 93.2971C46.4545 93.2971 45.7765 93.1156 45.1465 92.7526C44.5165 92.3896 44.008 91.8646 43.621 91.1776C43.234 90.4906 43.0405 89.6611 43.0405 88.6891C43.0405 87.7111 43.234 86.8771 43.621 86.1871C44.008 85.4971 44.5165 84.9706 45.1465 84.6076C45.7765 84.2446 46.4545 84.0631 47.1805 84.0631C47.9065 84.0631 48.583 84.2446 49.21 84.6076C49.837 84.9706 50.3455 85.4971 50.7355 86.1871C51.1255 86.8771 51.3205 87.7111 51.3205 88.6891C51.3205 89.6611 51.1255 90.4906 50.7355 91.1776C50.3455 91.8646 49.837 92.3896 49.21 92.7526C48.583 93.1156 47.9065 93.2971 47.1805 93.2971ZM47.1805 91.8031C47.6425 91.8031 48.0445 91.6741 48.3865 91.4161C48.7285 91.1581 48.991 90.7951 49.174 90.3271C49.357 89.8591 49.4485 89.3131 49.4485 88.6891C49.4485 88.0651 49.357 87.5176 49.174 87.0466C48.991 86.5756 48.7285 86.2096 48.3865 85.9486C48.0445 85.6876 47.6425 85.5571 47.1805 85.5571C46.7185 85.5571 46.318 85.6876 45.979 85.9486C45.64 86.2096 45.3775 86.5756 45.1915 87.0466C45.0055 87.5176 44.9125 88.0651 44.9125 88.6891C44.9125 89.3131 45.0055 89.8591 45.1915 90.3271C45.3775 90.7951 45.64 91.1581 45.979 91.4161C46.318 91.6741 46.7185 91.8031 47.1805 91.8031Z"/>
<path d="M53.7865 96.7711C53.5645 96.7711 53.365 96.7531 53.188 96.7171C53.011 96.6811 52.8445 96.6391 52.6885 96.5911L53.0305 95.1691C53.1205 95.1931 53.2255 95.2201 53.3455 95.2501C53.4655 95.2801 53.5765 95.2951 53.6785 95.2951C54.1585 95.2951 54.5485 95.1361 54.8485 94.8181C55.1485 94.5001 55.3765 94.1011 55.5325 93.6211L55.7125 93.0271L52.2205 84.2791L54.0745 84.2791L55.7125 88.8331C55.8505 89.2171 55.987 89.6221 56.122 90.0481C56.257 90.4741 56.3905 90.8971 56.5225 91.3171L56.5945 91.3171C56.7145 90.9091 56.833 90.4921 56.95 90.0661C57.067 89.6401 57.1825 89.2291 57.2965 88.8331L58.7185 84.2791L60.4825 84.2791L57.2425 93.6211C57.0145 94.2451 56.7505 94.7941 56.4505 95.2681C56.1505 95.7421 55.786 96.1111 55.357 96.3751C54.928 96.6391 54.4045 96.7711 53.7865 96.7711Z"/>
</g>
</g>
<g id="Layer-4" vectornator:layerName="Layer 4" visibility="hidden">
<g opacity="1">
<path d="M75.8127 21.3881L50.756 7.63304C48.1681 6.21272 45.0776 6.21272 42.4882 7.63304L17.4322 21.3888C14.6832 22.8979 12.9759 25.7836 12.9759 28.9192L12.9759 55.8164C12.9759 58.9527 14.6832 61.8377 17.4322 63.3468L42.4882 77.1018C43.7826 77.8127 45.2029 78.1678 46.6225 78.1678C48.0421 78.1678 49.4624 77.8127 50.7567 77.1018L75.812 63.3468C78.561 61.8377 80.2691 58.9527 80.2691 55.8164L80.2691 28.9192C80.2691 25.7836 78.561 22.8979 75.8127 21.3881ZM77.4056 55.8164C77.4056 57.9075 76.2673 59.8311 74.4339 60.8369L49.3779 74.592C47.6526 75.5384 45.5916 75.5384 43.8663 74.592L18.8103 60.8369C16.9777 59.8304 15.8394 57.9075 15.8394 55.8164L15.8394 28.9192C15.8394 26.8288 16.9777 24.9052 18.8096 23.8994L43.8656 10.1444C44.729 9.67045 45.6761 9.43349 46.6225 9.43349C47.5689 9.43349 48.516 9.67045 49.3786 10.1436L74.4346 23.8987C76.2673 24.9052 77.4056 26.8288 77.4056 28.9192L77.4056 55.8164Z" fill="#000000" fill-rule="nonzero" opacity="1" stroke="none"/>
<path d="M36.3846 34.7672C36.434 34.7672 36.4841 34.7651 36.5342 34.7622C39.3233 34.5847 48.0134 27.3815 48.5833 22.4963C48.8324 20.3622 47.6519 18.7357 45.3446 18.0327C43.7704 17.5538 42.2148 17.7657 40.8439 18.6469C36.1842 21.6429 34.718 31.7476 34.5663 32.8895C34.5426 33.0677 34.5526 33.2489 34.5963 33.4235C34.766 34.1065 35.3809 34.7672 36.3846 34.7672ZM42.3945 21.0545C42.8226 20.7796 43.2521 20.6435 43.7095 20.6435C43.9658 20.6435 44.2314 20.6865 44.5106 20.7724C45.8157 21.1697 45.7749 21.7159 45.7484 22.0767C45.5465 24.83 40.4938 29.4575 37.7598 31.2114C38.4485 27.8174 39.9655 22.6151 42.3945 21.0545Z" fill="#000000" fill-rule="nonzero" opacity="1" stroke="none"/>
<path d="M25.7773 31.9624C23.6569 31.6302 21.9817 32.7399 21.1856 35.0164C20.6423 36.5691 20.7912 38.1326 21.6159 39.5386C24.42 44.3172 34.456 46.1942 35.5907 46.3918C35.6723 46.4061 35.7546 46.4133 35.8369 46.4133C35.9336 46.4133 36.0302 46.404 36.1254 46.3846C36.8485 46.2357 37.5672 45.5957 37.5422 44.5019C37.4785 41.7078 30.6346 32.7306 25.7773 31.9624ZM24.085 38.0897C23.6826 37.4039 23.6204 36.7273 23.8881 35.9621C24.2532 34.919 24.6799 34.7622 25.0199 34.7622C25.0994 34.7622 25.1746 34.7708 25.2426 34.7794C27.9858 35.0937 32.4043 40.3333 34.0444 43.1359C30.684 42.3112 25.549 40.5852 24.085 38.0897Z" fill="#000000" fill-rule="nonzero" opacity="1" stroke="none"/>
<path d="M43.983 38.4834C43.8541 38.3574 43.7038 38.2565 43.5384 38.1863C42.8591 37.8985 41.9034 38.0166 41.3027 38.9308C39.7686 41.2675 40.3034 52.5427 43.8649 55.9338C44.6595 56.6912 45.573 57.0699 46.5366 57.0699C47.4579 57.0699 48.4258 56.7235 49.3786 56.0283C50.708 55.059 51.4733 53.6874 51.5929 52.0616C51.9988 46.5364 44.8041 39.2916 43.983 38.4834ZM48.7365 51.8526C48.6778 52.6458 48.3456 53.2371 47.6906 53.7146C46.5888 54.5178 46.1765 54.1577 45.9037 53.9193C43.8255 52.1031 43.164 45.2829 43.4053 42.0435C45.7033 44.6336 48.9491 48.974 48.7365 51.8526Z" fill="#000000" fill-rule="nonzero" opacity="1" stroke="none"/>
<path d="M66.3816 29.6207C66.4174 29.4439 66.4189 29.2628 66.3874 29.086C66.2556 28.3594 65.6335 27.6256 64.5397 27.6241C64.5382 27.6241 64.5375 27.6241 64.5368 27.6241C61.7391 27.6241 52.6044 34.2454 51.7189 39.0812C51.3316 41.1945 52.4033 42.8947 54.6597 43.7459C55.309 43.9907 55.9626 44.1131 56.6084 44.1131C57.4953 44.1131 58.3666 43.8833 59.1913 43.4259C64.0364 40.7384 66.1561 30.7511 66.3816 29.6207ZM57.8025 40.9231C57.1066 41.3076 56.4294 41.3527 55.6713 41.0678C54.3956 40.586 54.4714 40.044 54.5216 39.6847C54.9031 36.9507 60.2458 32.6611 63.0878 31.089C62.1801 34.4308 60.3274 39.5236 57.8025 40.9231Z" fill="#000000" fill-rule="nonzero" opacity="1" stroke="none"/>
<path d="M62.8917 44.8641C61.2809 45.2006 60.0188 46.1362 59.2414 47.5687C56.5983 52.4382 60.1756 62.001 60.5923 63.0748C60.6567 63.243 60.7533 63.3962 60.875 63.5287C61.1807 63.8594 61.6418 64.0949 62.1644 64.0949C62.4987 64.0949 62.8588 63.9983 63.2189 63.7692C65.5784 62.2708 69.7298 51.7738 67.8785 47.2179C67.0703 45.2292 65.2548 44.3701 62.8917 44.8641ZM62.5824 60.0695C61.5523 56.7657 60.3782 51.4782 61.7584 48.9346C62.1379 48.2352 62.6848 47.8322 63.478 47.6668C64.8131 47.3869 65.0408 47.8851 65.1911 48.2152C66.3387 50.7265 64.1352 57.2174 62.5824 60.0695Z" fill="#000000" fill-rule="nonzero" opacity="1" stroke="none"/>
</g>
<g fill="#000000" opacity="1" stroke="none">
<path d="M21.6745 93.4618C20.8705 93.4618 20.107 93.3073 19.384 92.9983C18.661 92.6893 18.0265 92.2648 17.4805 91.7248L18.5605 90.4648C18.9865 90.8848 19.474 91.2223 20.023 91.4773C20.572 91.7323 21.1345 91.8598 21.7105 91.8598C22.4245 91.8598 22.975 91.7053 23.362 91.3963C23.749 91.0873 23.9425 90.6778 23.9425 90.1678C23.9425 89.8078 23.86 89.5198 23.695 89.3038C23.53 89.0878 23.3065 88.9033 23.0245 88.7503C22.7425 88.5973 22.4185 88.4428 22.0525 88.2868L20.4055 87.5668C20.0275 87.4048 19.6555 87.1933 19.2895 86.9323C18.9235 86.6713 18.6205 86.3413 18.3805 85.9423C18.1405 85.5433 18.0205 85.0558 18.0205 84.4798C18.0205 83.8618 18.187 83.3098 18.52 82.8238C18.853 82.3378 19.309 81.9523 19.888 81.6673C20.467 81.3823 21.1285 81.2398 21.8725 81.2398C22.5685 81.2398 23.227 81.3748 23.848 81.6448C24.469 81.9148 24.9985 82.2748 25.4365 82.7248L24.4825 83.8948C24.1165 83.5648 23.7205 83.3068 23.2945 83.1208C22.8685 82.9348 22.3945 82.8418 21.8725 82.8418C21.2725 82.8418 20.7895 82.9783 20.4235 83.2513C20.0575 83.5243 19.8745 83.8978 19.8745 84.3718C19.8745 84.7078 19.966 84.9838 20.149 85.1998C20.332 85.4158 20.572 85.5958 20.869 85.7398C21.166 85.8838 21.4705 86.0248 21.7825 86.1628L23.4115 86.8558C23.8795 87.0478 24.292 87.2803 24.649 87.5533C25.006 87.8263 25.2895 88.1623 25.4995 88.5613C25.7095 88.9603 25.8145 89.4478 25.8145 90.0238C25.8145 90.6538 25.6495 91.2298 25.3195 91.7518C24.9895 92.2738 24.514 92.6893 23.893 92.9983C23.272 93.3073 22.5325 93.4618 21.6745 93.4618Z"/>
<path d="M31.5385 93.4618C30.7405 93.4618 30.0175 93.2788 29.3695 92.9128C28.7215 92.5468 28.207 92.0203 27.826 91.3333C27.445 90.6463 27.2545 89.8198 27.2545 88.8538C27.2545 87.8998 27.4465 87.0778 27.8305 86.3878C28.2145 85.6978 28.7125 85.1653 29.3245 84.7903C29.9365 84.4153 30.5845 84.2278 31.2685 84.2278C32.0425 84.2278 32.6965 84.4018 33.2305 84.7498C33.7645 85.0978 34.168 85.5838 34.441 86.2078C34.714 86.8318 34.8505 87.5578 34.8505 88.3858C34.8505 88.5598 34.843 88.7323 34.828 88.9033C34.813 89.0743 34.7935 89.2138 34.7695 89.3218L28.6765 89.3218L28.6585 88.0618L33.2665 88.0618C33.2665 87.2938 33.1 86.6998 32.767 86.2798C32.434 85.8598 31.9465 85.6498 31.3045 85.6498C30.9205 85.6498 30.5485 85.7593 30.1885 85.9783C29.8285 86.1973 29.5315 86.5423 29.2975 87.0133C29.0635 87.4843 28.9465 88.0978 28.9465 88.8538C28.9465 89.5858 29.0785 90.1858 29.3425 90.6538C29.6065 91.1218 29.953 91.4698 30.382 91.6978C30.811 91.9258 31.2745 92.0398 31.7725 92.0398C32.1745 92.0398 32.545 91.9798 32.884 91.8598C33.223 91.7398 33.5545 91.5778 33.8785 91.3738L34.5085 92.5258C34.1065 92.7898 33.655 93.0118 33.154 93.1918C32.653 93.3718 32.1145 93.4618 31.5385 93.4618Z"/>
<path d="M39.2965 93.4618C38.6845 93.4618 38.086 93.3448 37.501 93.1108C36.916 92.8768 36.4105 92.5858 35.9845 92.2378L36.8485 91.0678C37.2385 91.3678 37.633 91.6108 38.032 91.7968C38.431 91.9828 38.8705 92.0758 39.3505 92.0758C39.8725 92.0758 40.261 91.9603 40.516 91.7293C40.771 91.4983 40.8985 91.2178 40.8985 90.8878C40.8985 90.6178 40.8025 90.3913 40.6105 90.2083C40.4185 90.0253 40.174 89.8678 39.877 89.7358C39.58 89.6038 39.2725 89.4778 38.9545 89.3578C38.5585 89.2078 38.1655 89.0293 37.7755 88.8223C37.3855 88.6153 37.0615 88.3498 36.8035 88.0258C36.5455 87.7018 36.4165 87.2938 36.4165 86.8018C36.4165 86.0578 36.697 85.4428 37.258 84.9568C37.819 84.4708 38.5825 84.2278 39.5485 84.2278C40.1365 84.2278 40.6705 84.3298 41.1505 84.5338C41.6305 84.7378 42.0445 84.9778 42.3925 85.2538L41.5465 86.3878C41.2405 86.1598 40.9285 85.9738 40.6105 85.8298C40.2925 85.6858 39.9505 85.6138 39.5845 85.6138C39.0925 85.6138 38.7295 85.7218 38.4955 85.9378C38.2615 86.1538 38.1445 86.4118 38.1445 86.7118C38.1445 86.9638 38.2345 87.1708 38.4145 87.3328C38.5945 87.4948 38.8285 87.6358 39.1165 87.7558C39.4045 87.8758 39.7105 87.9958 40.0345 88.1158C40.4425 88.2718 40.846 88.4503 41.245 88.6513C41.644 88.8523 41.974 89.1193 42.235 89.4523C42.496 89.7853 42.6265 90.2278 42.6265 90.7798C42.6265 91.2718 42.499 91.7203 42.244 92.1253C41.989 92.5303 41.614 92.8543 41.119 93.0973C40.624 93.3403 40.0165 93.4618 39.2965 93.4618Z"/>
<path d="M46.6585 93.4618C46.1545 93.4618 45.7075 93.3568 45.3175 93.1468C44.9275 92.9368 44.6215 92.6413 44.3995 92.2603C44.1775 91.8793 44.0665 91.4308 44.0665 90.9148C44.0665 89.9668 44.4865 89.2348 45.3265 88.7188C46.1665 88.2028 47.5045 87.8458 49.3405 87.6478C49.3345 87.3058 49.282 86.9863 49.183 86.6893C49.084 86.3923 48.9115 86.1538 48.6655 85.9738C48.4195 85.7938 48.0805 85.7038 47.6485 85.7038C47.1805 85.7038 46.7335 85.7953 46.3075 85.9783C45.8815 86.1613 45.4825 86.3698 45.1105 86.6038L44.4265 85.3798C44.7265 85.1878 45.0625 85.0033 45.4345 84.8263C45.8065 84.6493 46.2055 84.5053 46.6315 84.3943C47.0575 84.2833 47.5045 84.2278 47.9725 84.2278C48.6985 84.2278 49.297 84.3763 49.768 84.6733C50.239 84.9703 50.5885 85.3963 50.8165 85.9513C51.0445 86.5063 51.1585 87.1738 51.1585 87.9538L51.1585 93.2458L49.6645 93.2458L49.5205 92.2378L49.4665 92.2378C49.0645 92.5798 48.6295 92.8693 48.1615 93.1063C47.6935 93.3433 47.1925 93.4618 46.6585 93.4618ZM47.2165 92.0218C47.6065 92.0218 47.9665 91.9303 48.2965 91.7473C48.6265 91.5643 48.9745 91.3078 49.3405 90.9778L49.3405 88.7998C48.4645 88.9078 47.7715 89.0533 47.2615 89.2363C46.7515 89.4193 46.3855 89.6398 46.1635 89.8978C45.9415 90.1558 45.8305 90.4498 45.8305 90.7798C45.8305 91.2118 45.964 91.5268 46.231 91.7248C46.498 91.9228 46.8265 92.0218 47.2165 92.0218Z"/>
<path d="M53.7685 93.2458L53.7685 84.4438L55.2625 84.4438L55.4065 85.6768L55.4605 85.6768C55.8385 85.2748 56.251 84.9328 56.698 84.6508C57.145 84.3688 57.6385 84.2278 58.1785 84.2278C58.8385 84.2278 59.3605 84.3718 59.7445 84.6598C60.1285 84.9478 60.4165 85.3438 60.6085 85.8478C61.0465 85.3738 61.4965 84.9853 61.9585 84.6823C62.4205 84.3793 62.9245 84.2278 63.4705 84.2278C64.3945 84.2278 65.0755 84.5278 65.5135 85.1278C65.9515 85.7278 66.1705 86.5858 66.1705 87.7018L66.1705 93.2458L64.3525 93.2458L64.3525 87.9358C64.3525 87.1678 64.234 86.6188 63.997 86.2888C63.76 85.9588 63.3865 85.7938 62.8765 85.7938C62.5705 85.7938 62.254 85.8928 61.927 86.0908C61.6 86.2888 61.2505 86.5918 60.8785 86.9998L60.8785 93.2458L59.0605 93.2458L59.0605 87.9358C59.0605 87.1678 58.942 86.6188 58.705 86.2888C58.468 85.9588 58.0945 85.7938 57.5845 85.7938C56.9845 85.7938 56.3185 86.1958 55.5865 86.9998L55.5865 93.2458L53.7685 93.2458Z"/>
<path d="M72.5065 93.4618C71.7085 93.4618 70.9855 93.2788 70.3375 92.9128C69.6895 92.5468 69.175 92.0203 68.794 91.3333C68.413 90.6463 68.2225 89.8198 68.2225 88.8538C68.2225 87.8998 68.4145 87.0778 68.7985 86.3878C69.1825 85.6978 69.6805 85.1653 70.2925 84.7903C70.9045 84.4153 71.5525 84.2278 72.2365 84.2278C73.0105 84.2278 73.6645 84.4018 74.1985 84.7498C74.7325 85.0978 75.136 85.5838 75.409 86.2078C75.682 86.8318 75.8185 87.5578 75.8185 88.3858C75.8185 88.5598 75.811 88.7323 75.796 88.9033C75.781 89.0743 75.7615 89.2138 75.7375 89.3218L69.6445 89.3218L69.6265 88.0618L74.2345 88.0618C74.2345 87.2938 74.068 86.6998 73.735 86.2798C73.402 85.8598 72.9145 85.6498 72.2725 85.6498C71.8885 85.6498 71.5165 85.7593 71.1565 85.9783C70.7965 86.1973 70.4995 86.5423 70.2655 87.0133C70.0315 87.4843 69.9145 88.0978 69.9145 88.8538C69.9145 89.5858 70.0465 90.1858 70.3105 90.6538C70.5745 91.1218 70.921 91.4698 71.35 91.6978C71.779 91.9258 72.2425 92.0398 72.7405 92.0398C73.1425 92.0398 73.513 91.9798 73.852 91.8598C74.191 91.7398 74.5225 91.5778 74.8465 91.3738L75.4765 92.5258C75.0745 92.7898 74.623 93.0118 74.122 93.1918C73.621 93.3718 73.0825 93.4618 72.5065 93.4618Z"/>
</g>
</g>
<g id="Layer-5" vectornator:layerName="Layer 5" visibility="hidden">
<g opacity="1">
<path d="M75.8113 21.4515L50.7558 7.69709C48.168 6.27684 45.0777 6.27684 42.4884 7.69709L17.4337 21.4522C14.6848 22.9612 12.9775 25.8468 12.9775 28.9822L12.9775 55.8782C12.9775 59.0143 14.6848 61.8992 17.4337 63.4082L42.4884 77.1626C43.7827 77.8734 45.2029 78.2285 46.6225 78.2285C48.042 78.2285 49.4623 77.8734 50.7565 77.1626L75.8106 63.4082C78.5595 61.8992 80.2675 59.0143 80.2675 55.8782L80.2675 28.9822C80.2675 25.8468 78.5595 22.9612 75.8113 21.4515ZM77.4041 55.8782C77.4041 57.9692 76.2659 59.8927 74.4326 60.8984L49.3778 74.6528C47.6526 75.5991 45.5917 75.5991 43.8665 74.6528L18.8117 60.8984C16.9791 59.8919 15.8409 57.9692 15.8409 55.8782L15.8409 28.9822C15.8409 26.8919 16.9791 24.9684 18.8109 23.9627L43.8657 10.2083C44.7291 9.7344 45.6761 9.49745 46.6225 9.49745C47.5688 9.49745 48.5159 9.7344 49.3785 10.2076L74.4333 23.9619C76.2659 24.9684 77.4041 26.8919 77.4041 28.9822L77.4041 55.8782Z" fill="#000000" fill-rule="nonzero" opacity="1" stroke="none"/>
<path d="M39.4339 25.6635L53.6393 25.7523C53.6428 25.7523 53.6457 25.7523 53.6486 25.7523C54.4353 25.7523 55.076 25.1173 55.0803 24.3292C55.0853 23.5389 54.4482 22.8939 53.6579 22.8889L49.5124 22.8631L47.6597 15.0704C47.6597 15.0704 47.3834 13.6759 46.6225 13.6759C45.9353 13.6759 45.5823 15.0968 45.5823 15.0968L43.8944 22.828L39.4518 22.8001C39.4489 22.8001 39.4454 22.8001 39.4425 22.8001C38.6558 22.8001 38.0158 23.4351 38.0108 24.2232C38.0058 25.0135 38.6429 25.6585 39.4339 25.6635Z" fill="#000000" fill-rule="nonzero" opacity="1" stroke="none"/>
<path d="M51.1209 46.2807C50.9634 45.766 50.5296 45.3831 49.9991 45.2907C49.4666 45.1962 48.9318 45.411 48.6082 45.8412L46.6225 48.4827L44.6367 45.8412C44.3131 45.411 43.7777 45.1955 43.2458 45.2907C42.7154 45.3831 42.2823 45.766 42.1241 46.2807L39.5857 54.5445C39.353 55.3005 39.7775 56.1015 40.5334 56.3334C41.2923 56.5654 42.0904 56.1409 42.3224 55.3849L44.0361 49.807L45.4528 51.6926C45.7234 52.0527 46.1973 52.2645 46.6475 52.2645C47.0978 52.2645 47.5216 52.0527 47.7922 51.6926L49.2088 49.807L50.9226 55.3849C51.1123 56.0006 51.6785 56.3972 52.2906 56.3972C52.4295 56.3972 52.5719 56.3757 52.7108 56.3334C53.4667 56.1015 53.8912 55.3005 53.6593 54.5445L51.1209 46.2807Z" fill="#000000" fill-rule="nonzero" opacity="1" stroke="none"/>
<path d="M59.6696 54.0821C58.7519 45.7596 57.4948 34.3611 55.7911 29.8949C54.9192 27.6099 52.5547 27.247 50.5339 27.1861L46.6089 27.2248L46.6089 27.2241L42.598 27.1861C40.6351 27.247 38.2706 27.6092 37.3995 29.8942C35.6964 34.359 34.4394 45.7546 33.5217 54.0742C33.395 55.2224 33.2776 56.2869 33.1695 57.2304C32.8388 60.1289 33.5403 62.5742 35.2562 64.4977C38.4983 68.1307 44.2036 68.5466 46.5659 68.5523L46.5659 68.553C46.5745 68.553 46.5853 68.553 46.5938 68.553C46.6024 68.553 46.6132 68.553 46.6218 68.553L46.6218 68.5523C48.9841 68.5466 54.6894 68.1307 57.9329 64.497C59.6488 62.5749 60.3511 60.1296 60.0196 57.2304C59.913 56.2891 59.7963 55.2275 59.6696 54.0821ZM55.7961 62.5907C54.0695 64.5264 50.6298 65.6832 46.5946 65.6889C42.5593 65.6832 39.1204 64.5271 37.3937 62.5914C36.2283 61.285 35.7773 59.6378 36.0157 57.5547C36.1238 56.6083 36.2412 55.5396 36.3686 54.3878C37.2183 46.6816 38.5026 35.0369 40.0753 30.9143C40.1813 30.6365 40.3781 30.119 42.628 30.0488L46.581 30.0875L46.5953 28.62L46.6096 30.0882L50.5031 30.0488C52.811 30.1197 53.0086 30.6365 53.1145 30.915C54.688 35.0383 55.9722 46.6873 56.8226 54.3956C56.9493 55.5446 57.0667 56.6105 57.1741 57.5554C57.4125 59.6378 56.9615 61.285 55.7961 62.5907Z" fill="#000000" fill-rule="nonzero" opacity="1" stroke="none"/>
</g>
<g fill="#000000" opacity="1" stroke="none">
<path d="M17.0575 93.4809L17.0575 81.6909L19.1815 81.6909L21.3415 87.6849C21.4795 88.0689 21.613 88.4604 21.742 88.8594C21.871 89.2584 22.0015 89.6589 22.1335 90.0609L22.2055 90.0609C22.3435 89.6589 22.474 89.2584 22.597 88.8594C22.72 88.4604 22.8475 88.0689 22.9795 87.6849L25.1035 81.6909L27.2275 81.6909L27.2275 93.4809L25.5355 93.4809L25.5355 87.6129C25.5355 87.2589 25.549 86.8689 25.576 86.4429C25.603 86.0169 25.6345 85.5879 25.6705 85.1559C25.7065 84.7239 25.7395 84.3309 25.7695 83.9769L25.6975 83.9769L24.7525 86.6949L22.6915 92.3379L21.5575 92.3379L19.4875 86.6949L18.5515 83.9769L18.4795 83.9769C18.5095 84.3309 18.5425 84.7239 18.5785 85.1559C18.6145 85.5879 18.646 86.0169 18.673 86.4429C18.7 86.8689 18.7135 87.2589 18.7135 87.6129L18.7135 93.4809L17.0575 93.4809Z"/>
<path d="M32.7535 93.6969C31.8235 93.6969 31.141 93.3969 30.706 92.7969C30.271 92.1969 30.0535 91.3389 30.0535 90.2229L30.0535 84.6789L31.8715 84.6789L31.8715 89.9889C31.8715 90.7509 31.9915 91.2984 32.2315 91.6314C32.4715 91.9644 32.8495 92.1309 33.3655 92.1309C33.7795 92.1309 34.1455 92.0259 34.4635 91.8159C34.7815 91.6059 35.1235 91.2669 35.4895 90.7989L35.4895 84.6789L37.3075 84.6789L37.3075 93.4809L35.8135 93.4809L35.6695 92.1489L35.6155 92.1489C35.2195 92.6169 34.795 92.9919 34.342 93.2739C33.889 93.5559 33.3595 93.6969 32.7535 93.6969Z"/>
<path d="M42.4735 93.6969C41.8615 93.6969 41.263 93.5799 40.678 93.3459C40.093 93.1119 39.5875 92.8209 39.1615 92.4729L40.0255 91.3029C40.4155 91.6029 40.81 91.8459 41.209 92.0319C41.608 92.2179 42.0475 92.3109 42.5275 92.3109C43.0495 92.3109 43.438 92.1954 43.693 91.9644C43.948 91.7334 44.0755 91.4529 44.0755 91.1229C44.0755 90.8529 43.9795 90.6264 43.7875 90.4434C43.5955 90.2604 43.351 90.1029 43.054 89.9709C42.757 89.8389 42.4495 89.7129 42.1315 89.5929C41.7355 89.4429 41.3425 89.2644 40.9525 89.0574C40.5625 88.8504 40.2385 88.5849 39.9805 88.2609C39.7225 87.9369 39.5935 87.5289 39.5935 87.0369C39.5935 86.2929 39.874 85.6779 40.435 85.1919C40.996 84.7059 41.7595 84.4629 42.7255 84.4629C43.3135 84.4629 43.8475 84.5649 44.3275 84.7689C44.8075 84.9729 45.2215 85.2129 45.5695 85.4889L44.7235 86.6229C44.4175 86.3949 44.1055 86.2089 43.7875 86.0649C43.4695 85.9209 43.1275 85.8489 42.7615 85.8489C42.2695 85.8489 41.9065 85.9569 41.6725 86.1729C41.4385 86.3889 41.3215 86.6469 41.3215 86.9469C41.3215 87.1989 41.4115 87.4059 41.5915 87.5679C41.7715 87.7299 42.0055 87.8709 42.2935 87.9909C42.5815 88.1109 42.8875 88.2309 43.2115 88.3509C43.6195 88.5069 44.023 88.6854 44.422 88.8864C44.821 89.0874 45.151 89.3544 45.412 89.6874C45.673 90.0204 45.8035 90.4629 45.8035 91.0149C45.8035 91.5069 45.676 91.9554 45.421 92.3604C45.166 92.7654 44.791 93.0894 44.296 93.3324C43.801 93.5754 43.1935 93.6969 42.4735 93.6969Z"/>
<path d="M50.5195 93.6969C49.5415 93.6969 48.853 93.4119 48.454 92.8419C48.055 92.2719 47.8555 91.5309 47.8555 90.6189L47.8555 86.1369L46.5775 86.1369L46.5775 84.7689L47.9455 84.6789L48.1615 82.2489L49.6735 82.2489L49.6735 84.6789L51.9775 84.6789L51.9775 86.1369L49.6735 86.1369L49.6735 90.6279C49.6735 91.1499 49.7755 91.5489 49.9795 91.8249C50.1835 92.1009 50.5135 92.2389 50.9695 92.2389C51.1255 92.2389 51.2905 92.2164 51.4645 92.1714C51.6385 92.1264 51.7915 92.0769 51.9235 92.0229L52.2475 93.3729C52.0075 93.4509 51.739 93.5244 51.442 93.5934C51.145 93.6624 50.8375 93.6969 50.5195 93.6969Z"/>
<path d="M55.5955 93.6969C55.0915 93.6969 54.6445 93.5919 54.2545 93.3819C53.8645 93.1719 53.5585 92.8764 53.3365 92.4954C53.1145 92.1144 53.0035 91.6659 53.0035 91.1499C53.0035 90.2019 53.4235 89.4699 54.2635 88.9539C55.1035 88.4379 56.4415 88.0809 58.2775 87.8829C58.2715 87.5409 58.219 87.2214 58.12 86.9244C58.021 86.6274 57.8485 86.3889 57.6025 86.2089C57.3565 86.0289 57.0175 85.9389 56.5855 85.9389C56.1175 85.9389 55.6705 86.0304 55.2445 86.2134C54.8185 86.3964 54.4195 86.6049 54.0475 86.8389L53.3635 85.6149C53.6635 85.4229 53.9995 85.2384 54.3715 85.0614C54.7435 84.8844 55.1425 84.7404 55.5685 84.6294C55.9945 84.5184 56.4415 84.4629 56.9095 84.4629C57.6355 84.4629 58.234 84.6114 58.705 84.9084C59.176 85.2054 59.5255 85.6314 59.7535 86.1864C59.9815 86.7414 60.0955 87.4089 60.0955 88.1889L60.0955 93.4809L58.6015 93.4809L58.4575 92.4729L58.4035 92.4729C58.0015 92.8149 57.5665 93.1044 57.0985 93.3414C56.6305 93.5784 56.1295 93.6969 55.5955 93.6969ZM56.1535 92.2569C56.5435 92.2569 56.9035 92.1654 57.2335 91.9824C57.5635 91.7994 57.9115 91.5429 58.2775 91.2129L58.2775 89.0349C57.4015 89.1429 56.7085 89.2884 56.1985 89.4714C55.6885 89.6544 55.3225 89.8749 55.1005 90.1329C54.8785 90.3909 54.7675 90.6849 54.7675 91.0149C54.7675 91.4469 54.901 91.7619 55.168 91.9599C55.435 92.1579 55.7635 92.2569 56.1535 92.2569Z"/>
<path d="M62.7055 93.4809L62.7055 84.6789L64.1995 84.6789L64.3435 86.2629L64.3975 86.2629C64.7095 85.6929 65.0845 85.2504 65.5225 84.9354C65.9605 84.6204 66.4195 84.4629 66.8995 84.4629C67.1095 84.4629 67.291 84.4764 67.444 84.5034C67.597 84.5304 67.7395 84.5769 67.8715 84.6429L67.5475 86.2269C67.3975 86.1789 67.2595 86.1429 67.1335 86.1189C67.0075 86.0949 66.8515 86.0829 66.6655 86.0829C66.3055 86.0829 65.929 86.2239 65.536 86.5059C65.143 86.7879 64.8055 87.2829 64.5235 87.9909L64.5235 93.4809L62.7055 93.4809Z"/>
<path d="M72.0835 93.6969C70.9855 93.6969 70.108 93.2919 69.451 92.4819C68.794 91.6719 68.4655 90.5409 68.4655 89.0889C68.4655 88.1349 68.6425 87.3129 68.9965 86.6229C69.3505 85.9329 69.814 85.4004 70.387 85.0254C70.96 84.6504 71.5735 84.4629 72.2275 84.4629C72.7375 84.4629 73.1725 84.5499 73.5325 84.7239C73.8925 84.8979 74.2495 85.1409 74.6035 85.4529L74.5315 83.9949L74.5315 80.7189L76.3495 80.7189L76.3495 93.4809L74.8555 93.4809L74.7115 92.4909L74.6575 92.4909C74.3275 92.8209 73.9405 93.1044 73.4965 93.3414C73.0525 93.5784 72.5815 93.6969 72.0835 93.6969ZM72.5155 92.1849C72.8875 92.1849 73.237 92.0964 73.564 91.9194C73.891 91.7424 74.2135 91.4709 74.5315 91.1049L74.5315 86.7849C74.2015 86.4849 73.8775 86.2749 73.5595 86.1549C73.2415 86.0349 72.9175 85.9749 72.5875 85.9749C72.1735 85.9749 71.797 86.0994 71.458 86.3484C71.119 86.5974 70.8475 86.9544 70.6435 87.4194C70.4395 87.8844 70.3375 88.4349 70.3375 89.0709C70.3375 90.0669 70.528 90.8349 70.909 91.3749C71.29 91.9149 71.8255 92.1849 72.5155 92.1849Z"/>
</g>
</g>
<g id="Layer-6" vectornator:layerName="Layer 6" visibility="hidden">
<g opacity="1">
<path d="M75.8133 21.3752L50.7567 7.6202C48.1681 6.19918 45.0776 6.19989 42.489 7.6202L17.4331 21.3759C14.6841 22.885 12.976 25.7707 12.976 28.9063L12.976 55.8034C12.976 58.9397 14.6834 61.8247 17.4331 63.3338L42.489 77.0888C43.7833 77.7996 45.2029 78.1547 46.6232 78.1547C48.0421 78.1547 49.4624 77.7996 50.7567 77.0888L75.8119 63.3338C78.5609 61.8247 80.269 58.9397 80.269 55.8034L80.269 28.9063C80.269 25.7707 78.5609 22.885 75.8133 21.3752ZM77.4054 55.8034C77.4054 57.8945 76.2672 59.8181 74.4338 60.8239L49.3779 74.5789C47.6519 75.5253 45.5916 75.5253 43.867 74.5789L18.8104 60.8239C16.9785 59.8174 15.8395 57.8938 15.8395 55.8034L15.8395 28.9063C15.8395 26.8159 16.9778 24.8923 18.8111 23.8865L43.8663 10.1315C44.7297 9.65761 45.6761 9.42065 46.6232 9.42065C47.5689 9.42065 48.5153 9.65761 49.3786 10.1308L74.4345 23.8858C76.2672 24.8923 77.4054 26.8159 77.4054 28.9063L77.4054 55.8034Z" fill="#000000" fill-rule="nonzero" opacity="1" stroke="none"/>
<path d="M59.5528 61.3625C56.9957 59.4647 54.8509 56.8381 53.0719 53.9874C55.1953 53.109 56.6635 51.882 57.4424 50.3185C58.5155 48.1644 57.8755 46.2051 57.693 45.7383C57.5212 45.2537 57.0988 44.89 56.5769 44.8034C56.5268 44.7955 55.9147 44.7024 55.0535 44.8027C55.0671 44.7654 55.0879 44.7311 55.1008 44.6931C55.9255 42.3228 54.944 40.2876 54.7063 39.8495C54.4651 39.3741 53.9747 39.0656 53.4299 39.0656L53.4292 39.0656C53.3476 39.0656 53.0626 39.0713 52.6539 39.14C52.8035 38.805 52.9345 38.4621 53.034 38.1077C53.7556 35.5413 52.9209 33.2082 52.3382 32.0127C52.3375 32.0113 52.3375 32.0091 52.3367 32.0077C51.3445 29.7605 50.5162 25.2376 51.5428 22.5917C51.8285 21.855 51.4626 21.0253 50.726 20.739C49.9886 20.4526 49.1589 20.8184 48.8733 21.5558C47.768 24.4043 48.2161 28.4075 49.0444 31.2675C48.5275 31.6089 47.9899 32.0413 47.468 32.5539C47.1373 29.3088 45.2638 27.3494 43.6402 25.6685L43.3424 25.3593C42.9286 24.9297 42.295 24.7987 41.7467 25.0336C41.199 25.2676 40.8533 25.816 40.8783 26.4109C40.9227 27.454 40.4538 28.4304 39.9591 29.4634C38.8531 31.7693 38.1608 33.9549 40.2512 36.434C38.9154 36.2364 37.6339 36.313 36.5601 36.5242C36.1256 34.8891 35.7104 32.1587 36.1964 28.381C36.2974 27.5971 35.7433 26.8791 34.9587 26.7782C34.1877 26.6815 33.4575 27.2306 33.3565 28.0159C32.4424 35.1239 34.3752 39.1057 34.6687 39.659C35.1319 40.745 36.0969 42.3951 37.9725 43.5491C38.3949 43.809 38.8423 44.0252 39.3077 44.2078C38.803 44.497 38.4937 44.7633 38.4185 44.8306C38.0241 45.1864 37.8645 45.729 37.9869 46.2344C38.0792 46.6375 38.6884 48.8911 40.947 50.1288C41.0859 50.2054 41.2341 50.2634 41.3794 50.3286C40.5741 50.9141 40.1381 51.499 40.1052 51.5448C39.8074 51.955 39.7544 52.4884 39.947 52.9444C40.0937 53.3016 40.995 55.2653 43.366 56.0749C44.0153 56.2969 44.7033 56.4078 45.4292 56.4078C46.9182 56.4078 48.5662 55.9353 50.3523 55.0068C52.3596 58.3228 54.8352 61.4276 57.8476 63.6619C58.1032 63.8523 58.4024 63.9439 58.6988 63.9439C59.1369 63.9439 59.5693 63.7442 59.8499 63.3655C60.321 62.7305 60.1885 61.8335 59.5528 61.3625ZM50.0946 34.0608C50.3938 34.9249 50.6236 36.1247 50.2707 37.356C49.897 38.6604 48.9291 39.8101 47.3857 40.7873C46.9039 37.278 48.7724 35.1203 50.0946 34.0608ZM49.8376 46.379C49.95 44.9716 50.3502 43.8763 51.0345 43.111C51.507 42.582 52.0518 42.2899 52.5021 42.1281C52.5866 42.5741 52.6066 43.1468 52.3962 43.751C52.0575 44.7239 51.1849 45.6152 49.8376 46.379ZM54.8602 49.0793C54.3935 49.9856 53.4063 50.7545 51.9645 51.3494C52.2702 50.0229 52.8078 49.0206 53.5566 48.4028C54.1085 47.9468 54.7049 47.7478 55.1824 47.6655C55.1924 48.0671 55.1251 48.5661 54.8602 49.0793ZM42.5413 30.7012C42.7418 30.2824 42.9515 29.8443 43.1391 29.3811C44.4148 31.0033 45.16 32.9033 44.2952 36.2214C40.9814 33.9527 41.5691 32.7293 42.5413 30.7012ZM37.6712 39.2624C39.3836 39.0548 42.1963 39.2231 44.2315 41.9112C42.328 42.1417 40.7466 41.8797 39.5081 41.1309C38.6254 40.5976 38.0434 39.8817 37.6712 39.2624ZM42.9057 46.2301C43.9265 46.3411 44.9567 46.8859 45.9833 47.8552C44.4885 48.1852 43.255 48.1143 42.3559 47.6354C41.771 47.324 41.3923 46.8787 41.1539 46.4857C41.5978 46.3024 42.1955 46.155 42.9057 46.2301ZM44.3317 53.3782C43.7834 53.2 43.3861 52.8928 43.1112 52.6029C43.5035 52.3287 44.0554 52.0538 44.7448 51.9837C45.7263 51.8877 46.823 52.2192 47.9877 52.9566C46.5445 53.5457 45.3018 53.6932 44.3317 53.3782Z" fill="#000000" fill-rule="nonzero" opacity="1" stroke="none"/>
</g>
<g fill="#000000" opacity="1" stroke="none">
<path d="M27.5065 93.4443C26.4565 93.4443 25.5205 93.2073 24.6985 92.7333C23.8765 92.2593 23.23 91.5678 22.759 90.6588C22.288 89.7498 22.0525 88.6503 22.0525 87.3603C22.0525 86.4003 22.192 85.5423 22.471 84.7863C22.75 84.0303 23.1385 83.3853 23.6365 82.8513C24.1345 82.3173 24.718 81.9123 25.387 81.6363C26.056 81.3603 26.7805 81.2223 27.5605 81.2223C28.3885 81.2223 29.089 81.3753 29.662 81.6813C30.235 81.9873 30.6985 82.3263 31.0525 82.6983L30.0625 83.8863C29.7685 83.5863 29.4295 83.3343 29.0455 83.1303C28.6615 82.9263 28.1845 82.8243 27.6145 82.8243C26.8765 82.8243 26.2315 83.0058 25.6795 83.3688C25.1275 83.7318 24.7 84.2478 24.397 84.9168C24.094 85.5858 23.9425 86.3823 23.9425 87.3063C23.9425 88.2423 24.0865 89.0493 24.3745 89.7273C24.6625 90.4053 25.084 90.9273 25.639 91.2933C26.194 91.6593 26.8765 91.8423 27.6865 91.8423C28.0585 91.8423 28.4125 91.7898 28.7485 91.6848C29.0845 91.5798 29.3545 91.4343 29.5585 91.2483L29.5585 88.4763L27.2185 88.4763L27.2185 86.9643L31.2145 86.9643L31.2145 92.0583C30.8305 92.4543 30.3175 92.7843 29.6755 93.0483C29.0335 93.3123 28.3105 93.4443 27.5065 93.4443Z"/>
<path d="M35.5705 93.4443C35.1325 93.4443 34.78 93.3543 34.513 93.1743C34.246 92.9943 34.0525 92.7348 33.9325 92.3958C33.8125 92.0568 33.7525 91.6503 33.7525 91.1763L33.7525 80.4663L35.5705 80.4663L35.5705 91.2843C35.5705 91.5243 35.6155 91.6953 35.7055 91.7973C35.7955 91.8993 35.8945 91.9503 36.0025 91.9503C36.0505 91.9503 36.097 91.9473 36.142 91.9413C36.187 91.9353 36.2485 91.9263 36.3265 91.9143L36.5605 93.2823C36.4465 93.3243 36.31 93.3618 36.151 93.3948C35.992 93.4278 35.7985 93.4443 35.5705 93.4443Z"/>
<path d="M41.0965 93.4443C40.1665 93.4443 39.484 93.1443 39.049 92.5443C38.614 91.9443 38.3965 91.0863 38.3965 89.9703L38.3965 84.4263L40.2145 84.4263L40.2145 89.7363C40.2145 90.4983 40.3345 91.0458 40.5745 91.3788C40.8145 91.7118 41.1925 91.8783 41.7085 91.8783C42.1225 91.8783 42.4885 91.7733 42.8065 91.5633C43.1245 91.3533 43.4665 91.0143 43.8325 90.5463L43.8325 84.4263L45.6505 84.4263L45.6505 93.2283L44.1565 93.2283L44.0125 91.8963L43.9585 91.8963C43.5625 92.3643 43.138 92.7393 42.685 93.0213C42.232 93.3033 41.7025 93.4443 41.0965 93.4443Z"/>
<path d="M51.3745 93.4443C50.3965 93.4443 49.708 93.1593 49.309 92.5893C48.91 92.0193 48.7105 91.2783 48.7105 90.3663L48.7105 85.8843L47.4325 85.8843L47.4325 84.5163L48.8005 84.4263L49.0165 81.9963L50.5285 81.9963L50.5285 84.4263L52.8325 84.4263L52.8325 85.8843L50.5285 85.8843L50.5285 90.3753C50.5285 90.8973 50.6305 91.2963 50.8345 91.5723C51.0385 91.8483 51.3685 91.9863 51.8245 91.9863C51.9805 91.9863 52.1455 91.9638 52.3195 91.9188C52.4935 91.8738 52.6465 91.8243 52.7785 91.7703L53.1025 93.1203C52.8625 93.1983 52.594 93.2718 52.297 93.3408C52 93.4098 51.6925 93.4443 51.3745 93.4443Z"/>
<path d="M58.1425 93.4443C57.3445 93.4443 56.6215 93.2613 55.9735 92.8953C55.3255 92.5293 54.811 92.0028 54.43 91.3158C54.049 90.6288 53.8585 89.8023 53.8585 88.8363C53.8585 87.8823 54.0505 87.0603 54.4345 86.3703C54.8185 85.6803 55.3165 85.1478 55.9285 84.7728C56.5405 84.3978 57.1885 84.2103 57.8725 84.2103C58.6465 84.2103 59.3005 84.3843 59.8345 84.7323C60.3685 85.0803 60.772 85.5663 61.045 86.1903C61.318 86.8143 61.4545 87.5403 61.4545 88.3683C61.4545 88.5423 61.447 88.7148 61.432 88.8858C61.417 89.0568 61.3975 89.1963 61.3735 89.3043L55.2805 89.3043L55.2625 88.0443L59.8705 88.0443C59.8705 87.2763 59.704 86.6823 59.371 86.2623C59.038 85.8423 58.5505 85.6323 57.9085 85.6323C57.5245 85.6323 57.1525 85.7418 56.7925 85.9608C56.4325 86.1798 56.1355 86.5248 55.9015 86.9958C55.6675 87.4668 55.5505 88.0803 55.5505 88.8363C55.5505 89.5683 55.6825 90.1683 55.9465 90.6363C56.2105 91.1043 56.557 91.4523 56.986 91.6803C57.415 91.9083 57.8785 92.0223 58.3765 92.0223C58.7785 92.0223 59.149 91.9623 59.488 91.8423C59.827 91.7223 60.1585 91.5603 60.4825 91.3563L61.1125 92.5083C60.7105 92.7723 60.259 92.9943 59.758 93.1743C59.257 93.3543 58.7185 93.4443 58.1425 93.4443Z"/>
<path d="M63.5065 93.2283L63.5065 84.4263L65.0005 84.4263L65.1445 85.6503L65.1985 85.6503C65.6065 85.2483 66.0445 84.9078 66.5125 84.6288C66.9805 84.3498 67.5145 84.2103 68.1145 84.2103C69.0565 84.2103 69.742 84.5103 70.171 85.1103C70.6 85.7103 70.8145 86.5683 70.8145 87.6843L70.8145 93.2283L68.9965 93.2283L68.9965 87.9183C68.9965 87.1503 68.8795 86.6013 68.6455 86.2713C68.4115 85.9413 68.0305 85.7763 67.5025 85.7763C67.0885 85.7763 66.7225 85.8783 66.4045 86.0823C66.0865 86.2863 65.7265 86.5863 65.3245 86.9823L65.3245 93.2283L63.5065 93.2283Z"/>
</g>
</g>
<g id="Layer-7" vectornator:layerName="Layer 7">
<g opacity="1">
<path d="M75.8355 21.2184L50.8162 7.49356C48.2428 6.06389 45.169 6.06389 42.5956 7.49356L26.0828 16.572C25.368 16.9294 25.1535 17.7872 25.5109 18.5021C25.8684 19.2169 26.7262 19.4313 27.441 19.0739L43.9537 9.99549C45.6694 9.0662 47.7424 9.0662 49.458 9.99549L74.4773 23.7204C76.3359 24.7211 77.4796 26.6512 77.4796 28.7242L77.4796 55.5306C77.4796 57.6036 76.3359 59.5337 74.4773 60.5345L49.458 74.2594C47.7424 75.1886 45.6694 75.1886 43.9537 74.2594L18.9344 60.5345C18.0866 60.0598 17.3904 59.3714 16.8857 58.5622C19.7815 56.1954 25.932 51.6333 28.8707 51.2416C30.0144 51.0271 32.2304 51.3846 34.3034 51.6705C38.5925 52.3139 42.953 52.9572 45.026 51.0271C46.0268 50.3123 50.0548 47.4967 49.0807 44.6083C49.0807 44.475 49.0646 44.4709 48.9963 44.3418C48.9548 44.2631 48.8757 44.0459 48.8216 43.9918C48.5778 43.6873 44.1353 37.4352 38.9563 32.6215C39.7362 31.4763 40.6483 29.8036 40.8085 28.3668C40.9514 27.0086 40.3081 25.6504 39.1643 24.9356C37.9491 24.2208 36.5194 24.2208 35.3757 24.9356C35.0183 25.15 34.6609 25.3645 34.3034 25.6504C33.0882 26.5082 32.1042 26.959 30.1574 27.4344C30.0028 27.4722 29.8507 27.3982 29.7085 27.4454C27.7605 27.2216 25.759 27.5111 23.7524 28.3232C21.9704 26.8249 19.0345 25.1036 15.5747 26.0793C14.5739 26.3653 13.7161 27.0801 13.2872 28.0094C12.9219 28.8007 12.8869 29.7407 13.1443 30.5785L13.1443 55.6021C13.1443 58.7474 14.8599 61.6067 17.5763 63.1079L42.5956 76.8328C43.8823 77.5476 45.3119 77.905 46.7416 77.905C48.1713 77.905 49.601 77.5476 50.8162 76.8328L75.8355 63.1079C78.5519 61.6067 80.2675 58.7474 80.2675 55.6021L80.2675 28.7242C80.2675 25.5789 78.5519 22.7196 75.8355 21.2184ZM43.3104 48.7397C43.2389 48.7397 43.1674 48.8112 43.0959 48.8826C43.0009 48.9777 42.8665 49.0535 42.7135 49.1207C42.4204 48.3837 42.5319 47.6974 43.0245 47.0955C43.74 46.1848 45.0946 45.7797 46.0346 46.0864C45.5335 46.9163 44.4305 48.0112 43.3104 48.7397ZM35.9476 27.9379C36.305 27.7235 36.5909 27.509 36.8769 27.2946C37.1628 27.0801 37.4487 27.2231 37.5917 27.2946C37.7347 27.366 38.0206 27.5805 37.9491 27.9379C37.849 28.6906 37.29 29.7915 36.7189 30.68C36.5573 30.5506 36.3958 30.422 36.2335 30.2969C35.6202 29.8065 34.9918 29.384 34.3535 29.0159C34.9604 28.6556 35.4879 28.2703 35.9476 27.9379ZM16.5307 28.6889C20.2478 27.6881 23.3243 31.798 23.3243 31.8695C23.8246 32.5129 24.6824 32.6558 25.3258 32.1554C25.8355 31.7594 26.0242 31.1404 25.8355 30.5799C28.8871 29.6742 31.7357 30.3333 34.4757 32.5129C38.3223 35.5688 42.2789 40.2495 44.5835 43.1618C43.2003 43.3734 41.8378 44.0754 40.9092 45.1655C39.8256 46.3964 39.5067 47.899 39.8928 49.3923C38.2422 49.3173 36.2978 49.0356 34.7616 48.8112C32.3312 48.4537 30.1152 48.0963 28.5426 48.3108C24.9369 48.8097 18.9652 53.2253 16.0365 55.5799C16.0365 55.5628 16.0329 55.5471 16.0329 55.5306L16.0329 34.6502C16.7349 35.3036 17.5126 35.884 18.3204 36.3015C18.5348 36.373 18.7493 36.4445 18.9637 36.4445C19.4641 36.4445 19.9645 36.1585 20.3219 35.6581C20.7508 34.9433 20.4649 34.0855 19.7501 33.7281C18.231 32.9682 16.7895 31.146 16.0573 29.9292L15.9396 29.51C15.9396 29.474 15.921 29.2995 15.9077 29.2989C15.8943 29.2983 16.0436 29.01 16.0354 28.9644C16.0969 28.8729 16.3341 28.7382 16.5307 28.6889Z" fill="#000000" fill-rule="nonzero" opacity="1" stroke="none"/>
<path d="M65.7865 19.472L47.2007 19.472C46.4144 19.472 45.771 20.1154 45.771 20.9017L45.771 26.955L42.7687 32.4821C42.4113 33.1969 42.6258 34.0547 43.3406 34.4121C44.0554 34.7696 44.9132 34.5551 45.2707 33.8403L47.2007 30.3376L50.0601 35.5559L50.0601 60.2178L44.4129 60.2178C44.3414 60.0748 44.3414 59.8603 44.3414 59.5029L44.3414 55.9287C44.3414 55.1424 43.698 54.4991 42.9117 54.4991C42.1254 54.4991 41.482 55.1424 41.482 55.9287L41.482 59.5029C41.482 62.7197 43.4836 63.0771 44.3414 63.0771L51.4897 63.0771L60.7826 63.0771C61.5689 63.0771 62.2123 62.4338 62.2123 61.6474C62.2123 60.8611 61.5689 60.2178 60.7826 60.2178L52.9194 60.2178L52.9194 36.6281L70.0755 36.6281L70.0755 55.9287C70.0755 56.7151 70.7189 57.3584 71.5052 57.3584C72.2915 57.3584 72.9349 56.7151 72.9349 55.9287L72.9349 35.395C72.9835 35.0719 72.9077 34.7367 72.7097 34.4372C72.6983 34.4193 72.6882 34.4014 72.6761 34.3843C72.6661 34.37 72.6596 34.3542 72.6482 34.3407L67.2162 26.8349L67.2162 20.9017C67.2162 20.1154 66.5728 19.472 65.7865 19.472ZM48.6304 22.3314L64.3568 22.3314L64.3568 25.9056L48.6304 25.9056L48.6304 22.3314ZM68.7016 33.7688L52.3475 33.7688L49.6183 28.7649L65.0717 28.7649L68.7016 33.7688Z" fill="#000000" fill-rule="nonzero" opacity="1" stroke="none"/>
<g fill="#000000" opacity="1" stroke="none">
<path d="M27.9025 92.9559L27.9025 81.1659L30.9625 81.1659C32.1685 81.1659 33.1945 81.3864 34.0405 81.8274C34.8865 82.2684 35.53 82.9239 35.971 83.7939C36.412 84.6639 36.6325 85.7379 36.6325 87.0159C36.6325 88.2939 36.412 89.3754 35.971 90.2604C35.53 91.1454 34.894 91.8159 34.063 92.2719C33.232 92.7279 32.2285 92.9559 31.0525 92.9559L27.9025 92.9559ZM29.7385 91.4619L30.8365 91.4619C31.6825 91.4619 32.395 91.2939 32.974 90.9579C33.553 90.6219 33.9925 90.1254 34.2925 89.4684C34.5925 88.8114 34.7425 87.9939 34.7425 87.0159C34.7425 86.0379 34.5925 85.2264 34.2925 84.5814C33.9925 83.9364 33.553 83.4549 32.974 83.1369C32.395 82.8189 31.6825 82.6599 30.8365 82.6599L29.7385 82.6599L29.7385 91.4619Z"/>
<path d="M41.0065 93.1719C40.5025 93.1719 40.0555 93.0669 39.6655 92.8569C39.2755 92.6469 38.9695 92.3514 38.7475 91.9704C38.5255 91.5894 38.4145 91.1409 38.4145 90.6249C38.4145 89.6769 38.8345 88.9449 39.6745 88.4289C40.5145 87.9129 41.8525 87.5559 43.6885 87.3579C43.6825 87.0159 43.63 86.6964 43.531 86.3994C43.432 86.1024 43.2595 85.8639 43.0135 85.6839C42.7675 85.5039 42.4285 85.4139 41.9965 85.4139C41.5285 85.4139 41.0815 85.5054 40.6555 85.6884C40.2295 85.8714 39.8305 86.0799 39.4585 86.3139L38.7745 85.0899C39.0745 84.8979 39.4105 84.7134 39.7825 84.5364C40.1545 84.3594 40.5535 84.2154 40.9795 84.1044C41.4055 83.9934 41.8525 83.9379 42.3205 83.9379C43.0465 83.9379 43.645 84.0864 44.116 84.3834C44.587 84.6804 44.9365 85.1064 45.1645 85.6614C45.3925 86.2164 45.5065 86.8839 45.5065 87.6639L45.5065 92.9559L44.0125 92.9559L43.8685 91.9479L43.8145 91.9479C43.4125 92.2899 42.9775 92.5794 42.5095 92.8164C42.0415 93.0534 41.5405 93.1719 41.0065 93.1719ZM41.5645 91.7319C41.9545 91.7319 42.3145 91.6404 42.6445 91.4574C42.9745 91.2744 43.3225 91.0179 43.6885 90.6879L43.6885 88.5099C42.8125 88.6179 42.1195 88.7634 41.6095 88.9464C41.0995 89.1294 40.7335 89.3499 40.5115 89.6079C40.2895 89.8659 40.1785 90.1599 40.1785 90.4899C40.1785 90.9219 40.312 91.2369 40.579 91.4349C40.846 91.6329 41.1745 91.7319 41.5645 91.7319Z"/>
<path d="M48.1165 92.9559L48.1165 84.1539L49.9345 84.1539L49.9345 92.9559L48.1165 92.9559ZM49.0345 82.4979C48.7105 82.4979 48.4435 82.3929 48.2335 82.1829C48.0235 81.9729 47.9185 81.7119 47.9185 81.3999C47.9185 81.0759 48.0235 80.8149 48.2335 80.6169C48.4435 80.4189 48.7105 80.3199 49.0345 80.3199C49.3705 80.3199 49.6405 80.4189 49.8445 80.6169C50.0485 80.8149 50.1505 81.0759 50.1505 81.3999C50.1505 81.7119 50.0485 81.9729 49.8445 82.1829C49.6405 82.3929 49.3705 82.4979 49.0345 82.4979Z"/>
<path d="M52.7065 92.9559L52.7065 84.1539L54.2005 84.1539L54.3445 85.7379L54.3985 85.7379C54.7105 85.1679 55.0855 84.7254 55.5235 84.4104C55.9615 84.0954 56.4205 83.9379 56.9005 83.9379C57.1105 83.9379 57.292 83.9514 57.445 83.9784C57.598 84.0054 57.7405 84.0519 57.8725 84.1179L57.5485 85.7019C57.3985 85.6539 57.2605 85.6179 57.1345 85.5939C57.0085 85.5699 56.8525 85.5579 56.6665 85.5579C56.3065 85.5579 55.93 85.6989 55.537 85.9809C55.144 86.2629 54.8065 86.7579 54.5245 87.4659L54.5245 92.9559L52.7065 92.9559Z"/>
<path d="M59.9785 96.6459C59.7565 96.6459 59.557 96.6279 59.38 96.5919C59.203 96.5559 59.0365 96.5139 58.8805 96.4659L59.2225 95.0439C59.3125 95.0679 59.4175 95.0949 59.5375 95.1249C59.6575 95.1549 59.7685 95.1699 59.8705 95.1699C60.3505 95.1699 60.7405 95.0109 61.0405 94.6929C61.3405 94.3749 61.5685 93.9759 61.7245 93.4959L61.9045 92.9019L58.4125 84.1539L60.2665 84.1539L61.9045 88.7079C62.0425 89.0919 62.179 89.4969 62.314 89.9229C62.449 90.3489 62.5825 90.7719 62.7145 91.1919L62.7865 91.1919C62.9065 90.7839 63.025 90.3669 63.142 89.9409C63.259 89.5149 63.3745 89.1039 63.4885 88.7079L64.9105 84.1539L66.6745 84.1539L63.4345 93.4959C63.2065 94.1199 62.9425 94.6689 62.6425 95.1429C62.3425 95.6169 61.978 95.9859 61.549 96.2499C61.12 96.5139 60.5965 96.6459 59.9785 96.6459Z"/>
</g>
<path d="M33.2312 37.8742C34.089 37.8742 34.5894 37.3024 34.5894 36.4445C34.5894 35.5867 34.0175 35.0149 33.1597 35.0149C32.3019 35.0149 31.8015 35.5867 31.73 36.516C31.873 37.3738 32.3019 37.8742 33.2312 37.8742Z" fill="#000000" fill-rule="nonzero" opacity="1" stroke="none"/>
</g>
</g>
<g id="Layer-1" vectornator:layerName="Layer 1" visibility="hidden">
<g fill="#000000" opacity="1" stroke="none">
<path d="M17.2745 93.4354L17.2745 81.6454L20.8385 81.6454C21.7145 81.6454 22.49 81.7579 23.165 81.9829C23.84 82.2079 24.371 82.5799 24.758 83.0989C25.145 83.6179 25.3385 84.3214 25.3385 85.2094C25.3385 86.0614 25.148 86.7634 24.767 87.3154C24.386 87.8674 23.861 88.2784 23.192 88.5484C22.523 88.8184 21.7625 88.9534 20.9105 88.9534L19.1105 88.9534L19.1105 93.4354L17.2745 93.4354ZM19.1105 87.4774L20.7305 87.4774C21.6785 87.4774 22.3805 87.2914 22.8365 86.9194C23.2925 86.5474 23.5205 85.9774 23.5205 85.2094C23.5205 84.4234 23.2805 83.8789 22.8005 83.5759C22.3205 83.2729 21.6065 83.1214 20.6585 83.1214L19.1105 83.1214L19.1105 87.4774Z"/>
<path d="M30.7205 93.6514C29.9225 93.6514 29.1995 93.4684 28.5515 93.1024C27.9035 92.7364 27.389 92.2099 27.008 91.5229C26.627 90.8359 26.4365 90.0094 26.4365 89.0434C26.4365 88.0894 26.6285 87.2674 27.0125 86.5774C27.3965 85.8874 27.8945 85.3549 28.5065 84.9799C29.1185 84.6049 29.7665 84.4174 30.4505 84.4174C31.2245 84.4174 31.8785 84.5914 32.4125 84.9394C32.9465 85.2874 33.35 85.7734 33.623 86.3974C33.896 87.0214 34.0325 87.7474 34.0325 88.5754C34.0325 88.7494 34.025 88.9219 34.01 89.0929C33.995 89.2639 33.9755 89.4034 33.9515 89.5114L27.8585 89.5114L27.8405 88.2514L32.4485 88.2514C32.4485 87.4834 32.282 86.8894 31.949 86.4694C31.616 86.0494 31.1285 85.8394 30.4865 85.8394C30.1025 85.8394 29.7305 85.9489 29.3705 86.1679C29.0105 86.3869 28.7135 86.7319 28.4795 87.2029C28.2455 87.6739 28.1285 88.2874 28.1285 89.0434C28.1285 89.7754 28.2605 90.3754 28.5245 90.8434C28.7885 91.3114 29.135 91.6594 29.564 91.8874C29.993 92.1154 30.4565 92.2294 30.9545 92.2294C31.3565 92.2294 31.727 92.1694 32.066 92.0494C32.405 91.9294 32.7365 91.7674 33.0605 91.5634L33.6905 92.7154C33.2885 92.9794 32.837 93.2014 32.336 93.3814C31.835 93.5614 31.2965 93.6514 30.7205 93.6514Z"/>
<path d="M37.9385 93.6514C37.4345 93.6514 36.9875 93.5464 36.5975 93.3364C36.2075 93.1264 35.9015 92.8309 35.6795 92.4499C35.4575 92.0689 35.3465 91.6204 35.3465 91.1044C35.3465 90.1564 35.7665 89.4244 36.6065 88.9084C37.4465 88.3924 38.7845 88.0354 40.6205 87.8374C40.6145 87.4954 40.562 87.1759 40.463 86.8789C40.364 86.5819 40.1915 86.3434 39.9455 86.1634C39.6995 85.9834 39.3605 85.8934 38.9285 85.8934C38.4605 85.8934 38.0135 85.9849 37.5875 86.1679C37.1615 86.3509 36.7625 86.5594 36.3905 86.7934L35.7065 85.5694C36.0065 85.3774 36.3425 85.1929 36.7145 85.0159C37.0865 84.8389 37.4855 84.6949 37.9115 84.5839C38.3375 84.4729 38.7845 84.4174 39.2525 84.4174C39.9785 84.4174 40.577 84.5659 41.048 84.8629C41.519 85.1599 41.8685 85.5859 42.0965 86.1409C42.3245 86.6959 42.4385 87.3634 42.4385 88.1434L42.4385 93.4354L40.9445 93.4354L40.8005 92.4274L40.7465 92.4274C40.3445 92.7694 39.9095 93.0589 39.4415 93.2959C38.9735 93.5329 38.4725 93.6514 37.9385 93.6514ZM38.4965 92.2114C38.8865 92.2114 39.2465 92.1199 39.5765 91.9369C39.9065 91.7539 40.2545 91.4974 40.6205 91.1674L40.6205 88.9894C39.7445 89.0974 39.0515 89.2429 38.5415 89.4259C38.0315 89.6089 37.6655 89.8294 37.4435 90.0874C37.2215 90.3454 37.1105 90.6394 37.1105 90.9694C37.1105 91.4014 37.244 91.7164 37.511 91.9144C37.778 92.1124 38.1065 92.2114 38.4965 92.2114Z"/>
<path d="M45.0485 93.4354L45.0485 84.6334L46.5425 84.6334L46.6865 85.8574L46.7405 85.8574C47.1485 85.4554 47.5865 85.1149 48.0545 84.8359C48.5225 84.5569 49.0565 84.4174 49.6565 84.4174C50.5985 84.4174 51.284 84.7174 51.713 85.3174C52.142 85.9174 52.3565 86.7754 52.3565 87.8914L52.3565 93.4354L50.5385 93.4354L50.5385 88.1254C50.5385 87.3574 50.4215 86.8084 50.1875 86.4784C49.9535 86.1484 49.5725 85.9834 49.0445 85.9834C48.6305 85.9834 48.2645 86.0854 47.9465 86.2894C47.6285 86.4934 47.2685 86.7934 46.8665 87.1894L46.8665 93.4354L45.0485 93.4354Z"/>
<path d="M57.6125 93.6514C56.6825 93.6514 56 93.3514 55.565 92.7514C55.13 92.1514 54.9125 91.2934 54.9125 90.1774L54.9125 84.6334L56.7305 84.6334L56.7305 89.9434C56.7305 90.7054 56.8505 91.2529 57.0905 91.5859C57.3305 91.9189 57.7085 92.0854 58.2245 92.0854C58.6385 92.0854 59.0045 91.9804 59.3225 91.7704C59.6405 91.5604 59.9825 91.2214 60.3485 90.7534L60.3485 84.6334L62.1665 84.6334L62.1665 93.4354L60.6725 93.4354L60.5285 92.1034L60.4745 92.1034C60.0785 92.5714 59.654 92.9464 59.201 93.2284C58.748 93.5104 58.2185 93.6514 57.6125 93.6514Z"/>
<path d="M67.8905 93.6514C66.9125 93.6514 66.224 93.3664 65.825 92.7964C65.426 92.2264 65.2265 91.4854 65.2265 90.5734L65.2265 86.0914L63.9485 86.0914L63.9485 84.7234L65.3165 84.6334L65.5325 82.2034L67.0445 82.2034L67.0445 84.6334L69.3485 84.6334L69.3485 86.0914L67.0445 86.0914L67.0445 90.5824C67.0445 91.1044 67.1465 91.5034 67.3505 91.7794C67.5545 92.0554 67.8845 92.1934 68.3405 92.1934C68.4965 92.1934 68.6615 92.1709 68.8355 92.1259C69.0095 92.0809 69.1625 92.0314 69.2945 91.9774L69.6185 93.3274C69.3785 93.4054 69.11 93.4789 68.813 93.5479C68.516 93.6169 68.2085 93.6514 67.8905 93.6514Z"/>
<path d="M73.5605 93.6514C72.9485 93.6514 72.35 93.5344 71.765 93.3004C71.18 93.0664 70.6745 92.7754 70.2485 92.4274L71.1125 91.2574C71.5025 91.5574 71.897 91.8004 72.296 91.9864C72.695 92.1724 73.1345 92.2654 73.6145 92.2654C74.1365 92.2654 74.525 92.1499 74.78 91.9189C75.035 91.6879 75.1625 91.4074 75.1625 91.0774C75.1625 90.8074 75.0665 90.5809 74.8745 90.3979C74.6825 90.2149 74.438 90.0574 74.141 89.9254C73.844 89.7934 73.5365 89.6674 73.2185 89.5474C72.8225 89.3974 72.4295 89.2189 72.0395 89.0119C71.6495 88.8049 71.3255 88.5394 71.0675 88.2154C70.8095 87.8914 70.6805 87.4834 70.6805 86.9914C70.6805 86.2474 70.961 85.6324 71.522 85.1464C72.083 84.6604 72.8465 84.4174 73.8125 84.4174C74.4005 84.4174 74.9345 84.5194 75.4145 84.7234C75.8945 84.9274 76.3085 85.1674 76.6565 85.4434L75.8105 86.5774C75.5045 86.3494 75.1925 86.1634 74.8745 86.0194C74.5565 85.8754 74.2145 85.8034 73.8485 85.8034C73.3565 85.8034 72.9935 85.9114 72.7595 86.1274C72.5255 86.3434 72.4085 86.6014 72.4085 86.9014C72.4085 87.1534 72.4985 87.3604 72.6785 87.5224C72.8585 87.6844 73.0925 87.8254 73.3805 87.9454C73.6685 88.0654 73.9745 88.1854 74.2985 88.3054C74.7065 88.4614 75.11 88.6399 75.509 88.8409C75.908 89.0419 76.238 89.3089 76.499 89.6419C76.76 89.9749 76.8905 90.4174 76.8905 90.9694C76.8905 91.4614 76.763 91.9099 76.508 92.3149C76.253 92.7199 75.878 93.0439 75.383 93.2869C74.888 93.5299 74.2805 93.6514 73.5605 93.6514Z"/>
</g>
<path d="M46.6225 78.9438C45.1779 78.9412 43.7572 78.5744 42.492 77.8772L17.4372 64.1257C14.6897 62.619 12.9805 59.7357 12.9775 56.6021L12.9775 29.7004C12.9805 26.5668 14.6897 23.6836 17.4372 22.1768L42.492 8.41817C45.0649 7.00722 48.18 7.00722 50.7529 8.41817L75.8077 22.1697C78.5575 23.6776 80.267 26.5643 80.2675 29.7004L80.2675 56.6021C80.2644 59.7357 78.5553 62.619 75.8077 64.1257L50.7529 77.8844C49.487 78.5791 48.0665 78.9434 46.6225 78.9438ZM46.6225 10.2221C45.6582 10.2249 44.7102 10.4711 43.8665 10.938L18.8117 24.6895C16.9824 25.6938 15.8442 27.6136 15.8409 29.7004L15.8409 56.6021C15.8442 58.6889 16.9824 60.6088 18.8117 61.6131L43.8665 75.3646C45.583 76.3069 47.662 76.3069 49.3785 75.3646L74.4333 61.6131C76.2626 60.6088 77.4008 58.6889 77.4041 56.6021L77.4041 29.7004C77.4008 27.6136 76.2626 25.6938 74.4333 24.6895L49.3785 10.938C48.5347 10.4711 47.5868 10.2249 46.6225 10.2221Z" fill="#000000" fill-rule="nonzero" opacity="0" stroke="none"/>
<path d="M59.5722 37.539C59.1578 38.3632 58.6003 39.1073 57.9258 39.7367C54.64 42.7289 52.2491 47.611 52.6356 52.0708C52.682 53.5506 52.3125 55.0139 51.569 56.2943" fill="#ffffff" fill-rule="nonzero" opacity="1" stroke="none"/>
<path d="M51.569 57.726C51.3425 57.7258 51.1192 57.6718 50.9176 57.5685C50.5779 57.3956 50.3211 57.0944 50.2042 56.7316C50.0873 56.3688 50.1199 55.9744 50.2948 55.6357C50.915 54.5957 51.2323 53.4032 51.2111 52.1925C50.8102 47.6039 53.1224 42.1705 56.9379 38.6772C57.4894 38.1644 57.943 37.5556 58.2765 36.8804C58.6383 36.1767 59.502 35.8994 60.2058 36.2612C60.9095 36.6229 61.1867 37.4867 60.825 38.1904C60.3339 39.1663 59.672 40.0464 58.8707 40.789C55.6565 43.7239 53.7166 48.2052 54.0387 51.9419C54.1191 53.6941 53.6969 55.4327 52.8217 56.9529C52.5788 57.422 52.0972 57.7191 51.569 57.726Z" fill="#000000" fill-rule="nonzero" opacity="1" stroke="none"/>
<path d="M37.2448 62.9016C36.5394 62.9071 35.935 62.3979 35.8208 61.7018C35.7066 61.0056 36.1165 60.33 36.7867 60.1098C36.8511 60.1098 43.6016 57.7403 45.7491 53.3307C46.3613 52.2765 46.6801 51.0778 46.6726 49.8588C46.2717 45.2702 48.5839 39.8369 52.3994 36.3435C52.8485 35.879 53.2402 35.3623 53.5662 34.8044L53.8168 34.4179C55.0409 32.5495 55.7854 28.9917 54.6758 25.2478C54.4505 24.4888 54.8831 23.6907 55.6422 23.4654C56.4013 23.24 57.1993 23.6727 57.4247 24.4318C58.6273 28.4978 58.1405 33.022 56.2077 35.9928L55.9715 36.3578C55.5213 37.1271 54.9699 37.8325 54.3322 38.4553C51.1395 41.3903 49.1995 45.8715 49.5217 49.5939C49.5825 51.3424 49.1668 53.0745 48.319 54.6049C45.6489 60.074 38.0323 62.7155 37.703 62.8229C37.5554 62.8733 37.4008 62.8999 37.2448 62.9016Z" fill="#000000" fill-rule="nonzero" opacity="1" stroke="none"/>
<path d="M37.2448 62.9016C36.6178 62.8972 36.0665 62.4852 35.8847 61.8851C35.7845 61.5558 33.4938 53.8246 36.4001 48.4557C37.146 46.8877 38.3009 45.5499 39.7431 44.583C42.9716 42.6716 45.47 38.4839 45.9997 34.1673C46.1271 33.2858 46.3677 32.4245 46.7155 31.6046L46.8802 31.2037C48.1902 27.9036 51.6334 24.8756 55.6064 23.4868C56.3536 23.2279 57.1693 23.6237 57.4283 24.3709C57.6872 25.1181 57.2914 25.9338 56.5442 26.1928C52.8575 27.4741 50.3879 30.1443 49.5861 32.2345L49.4143 32.664C49.1512 33.2525 48.959 33.87 48.8416 34.5038C48.2331 39.6579 45.1621 44.7047 41.1963 47.0455C40.2 47.7499 39.4113 48.7092 38.9128 49.823C36.5648 54.1181 38.5906 60.9831 38.6121 61.0547C38.8398 61.8097 38.4141 62.6066 37.66 62.8372C37.5255 62.8789 37.3856 62.9007 37.2448 62.9016Z" fill="#000000" fill-rule="nonzero" opacity="1" stroke="none"/>
<path d="M43.709 29.3854C43.212 30.3523 42.9127 31.4084 42.8285 32.4922C42.5421 36.2719 39.8577 40.3666 35.5984 43.7454C34.5602 44.5738 33.7129 45.6164 33.1144 46.8021" fill="#ffffff" fill-rule="nonzero" opacity="1" stroke="none"/>
<path d="M33.1144 48.2338C32.8878 48.2336 32.6646 48.1796 32.4629 48.0763C31.7595 47.7163 31.4808 46.8544 31.8402 46.1507C32.5293 44.7818 33.506 43.5779 34.7036 42.6215C38.698 39.4575 41.1462 35.7279 41.3968 32.3849C41.4937 31.1091 41.8442 29.8655 42.4276 28.7269C42.7893 28.0231 43.6531 27.7459 44.3568 28.1077C45.0605 28.4694 45.3378 29.3331 44.976 30.0369C44.5677 30.8369 44.3243 31.7109 44.2602 32.6068C43.9452 36.7444 41.1104 41.197 36.486 44.8621C35.6107 45.5643 34.8956 46.4454 34.3886 47.4464C34.146 47.9278 33.6535 48.2322 33.1144 48.2338Z" fill="#000000" fill-rule="nonzero" opacity="1" stroke="none"/>
<path d="M59.5722 38.9707C59.3457 38.9705 59.1224 38.9165 58.9208 38.8132C58.5811 38.6403 58.3243 38.3391 58.2074 37.9763C58.0905 37.6135 58.1231 37.2191 58.298 36.8804C60.0662 33.4515 58.5271 27.7104 55.4346 26.1426C52.3421 24.5749 46.7656 26.6366 44.9975 30.0655C44.6357 30.7692 43.772 31.0465 43.0683 30.6847C42.3645 30.323 42.0873 29.4592 42.4491 28.7555C44.7398 24.3029 51.7551 21.0458 56.7661 23.5942C61.777 26.1426 63.173 33.7665 60.8822 38.2191C60.624 38.6983 60.1163 38.9896 59.5722 38.9707Z" fill="#000000" fill-rule="nonzero" opacity="1" stroke="none"/>
<path d="M41.1534 63.7821C39.5741 63.8024 38.0129 63.444 36.6006 62.737C31.3033 60.0167 28.9553 51.7987 31.8545 46.1507C32.0494 45.6373 32.5207 45.2806 33.0678 45.2326C33.6148 45.1845 34.1411 45.4536 34.4225 45.9252C34.7038 46.3968 34.6907 46.9878 34.3886 47.4464C32.241 51.6484 34.0307 58.1841 37.8963 60.1814C41.7618 62.1786 48.1401 59.8234 50.2948 55.6214C50.6565 54.9177 51.5203 54.6404 52.224 55.0022C52.9277 55.3639 53.205 56.2277 52.8432 56.9314C50.6957 61.1263 45.7348 63.7821 41.1534 63.7821Z" fill="#000000" fill-rule="nonzero" opacity="1" stroke="none"/>
<path d="M53.6779 47.3676C53.4543 47.3674 53.2339 47.3143 53.0349 47.2127L39.8019 40.4024C39.2778 40.2234 38.907 39.7558 38.8534 39.2062C38.7998 38.6567 39.0733 38.1266 39.5529 37.8503C40.0325 37.5741 40.6298 37.6026 41.0807 37.9234L54.3137 44.7055C54.8956 45.0026 55.197 45.6589 55.0424 46.2922C54.8878 46.9255 54.3175 47.3703 53.6637 47.3676L53.6779 47.3676Z" fill="#000000" fill-rule="nonzero" opacity="1" stroke="none"/>
<path d="M58.1492 39.708C57.4504 39.7269 56.8333 39.2702 56.6693 38.6128C56.1957 36.7086 54.0055 34.5253 51.2159 33.1866C48.6631 31.9625 46.1621 31.6905 44.3492 32.4708C43.5932 32.7712 42.7285 32.4219 42.418 31.6905C42.1074 30.9591 42.4685 30.1226 43.2245 29.8221C45.8365 28.7269 49.2476 29.0204 52.5848 30.6239C56.1661 32.3491 58.9187 35.2125 59.5995 37.9327C59.6931 38.302 59.6311 38.6922 59.427 39.0172C59.223 39.3422 58.8937 39.5753 58.5118 39.6651C58.3932 39.6938 58.2714 39.7082 58.1492 39.708Z" fill="#000000" fill-rule="nonzero" opacity="1" stroke="none"/>
<path d="M48.1759 58.6065C45.0445 58.5168 41.9796 57.6825 39.2349 56.1726C35.2691 54.068 32.5274 51.0614 31.7041 47.926C31.5401 47.1741 31.9997 46.4271 32.7447 46.2346C33.4898 46.042 34.2538 46.4729 34.4745 47.2101C35.0973 49.5724 37.3379 51.9204 40.5735 53.6528C44.1528 55.5426 48.1114 56.2442 50.4881 55.4138C51.2243 55.1817 52.0119 55.575 52.2687 56.3029C52.5255 57.0309 52.159 57.8313 51.4402 58.1126C50.3873 58.4583 49.2839 58.6253 48.1759 58.6065Z" fill="#000000" fill-rule="nonzero" opacity="1" stroke="none"/>
<path d="M48.3548 52.1781C46.1204 52.1576 43.9243 51.595 41.9551 50.5388C38.4904 48.7063 36.2927 45.7355 35.9277 42.3853C35.8407 41.5946 36.4112 40.8831 37.2019 40.7961C37.9926 40.7091 38.7041 41.2796 38.7911 42.0703C39.0488 44.4613 40.7024 46.6303 43.3081 48.0119C46.1142 49.5009 49.4358 49.7443 51.5762 48.6132C52.2759 48.2436 53.1429 48.5112 53.5125 49.2109C53.8822 49.9107 53.6146 50.7777 52.9148 51.1473C51.5009 51.8557 49.9359 52.2094 48.3548 52.1781Z" fill="#000000" fill-rule="nonzero" opacity="1" stroke="none"/>
</g>
<g id="Layer-8" vectornator:layerName="Layer 8" visibility="hidden">
<g opacity="1">
<path d="M75.8113 21.3358L50.7558 7.58142C48.168 6.16117 45.0777 6.16117 42.4884 7.58142L17.4337 21.3365C14.6848 22.8455 12.9775 25.7311 12.9775 28.8665L12.9775 55.7625C12.9775 58.8986 14.6848 61.7835 17.4337 63.2925L42.4884 77.0469C43.7827 77.7577 45.2029 78.1128 46.6225 78.1128C46.8444 78.1128 47.0656 78.0885 47.2868 78.0713L47.2875 78.0713C47.2882 78.0713 47.2889 78.0713 47.2897 78.0713C48.4837 77.9775 49.6656 77.6468 50.7565 77.0469L75.8106 63.2925C78.5595 61.7835 80.2675 58.8986 80.2675 55.7625L80.2675 28.8665C80.2675 25.7311 78.5595 22.8455 75.8113 21.3358ZM77.4041 55.7625C77.4041 57.8535 76.2659 59.777 74.4326 60.7828L57.5328 70.0602C61.5523 56.5242 57.769 43.5766 55.8663 37.0816C55.6207 36.2405 55.4074 35.5139 55.2513 34.9176C54.6572 32.6305 55.2327 28.1099 57.4884 26.2343C59.583 24.4891 61.9625 24.6838 63.6776 25.2107C62.6346 25.7511 61.4929 26.3897 59.6517 27.8801C59.3467 28.1271 59.1563 28.4886 59.1248 28.8801C59.094 29.2717 59.2258 29.659 59.4885 29.951C60.7333 31.3355 63.7084 33.2891 67.4845 33.9369C65.5983 36.6944 64.0241 37.2341 60.1721 36.2205C59.4076 36.0193 58.6244 36.4767 58.4233 37.2406C58.2228 38.0051 58.6796 38.7882 59.4441 38.9894C65.7314 40.6444 68.2319 38.5184 71.1568 33.4372C71.411 32.9956 71.4117 32.4529 71.1583 32.0113C70.9049 31.5696 70.436 31.2954 69.927 31.2911C66.7808 31.2668 64.2854 30.052 62.8372 29.0527C63.8323 28.3497 64.5409 27.986 65.3262 27.5837C65.997 27.2401 66.6892 26.8851 67.5955 26.3052C68.0014 26.0454 68.2491 25.5994 68.2555 25.1183C68.2619 24.6366 68.0257 24.1841 67.6277 23.9143C65.3728 22.3845 59.9681 20.4438 55.658 24.0338C52.3357 26.7963 51.6785 32.5474 52.4817 35.6399C52.6435 36.2598 52.8647 37.0136 53.1195 37.8863C55.0767 44.5666 59.1169 58.3861 53.8146 72.1018L49.9111 74.245C52.4667 68.1882 53.7173 63.3519 53.7173 59.5322C53.7173 53.8612 52.6829 46.2825 51.2583 41.512C50.7551 39.8298 48.3785 31.1888 51.0736 26.2336C52.3378 23.9043 54.2248 21.7517 56.25 20.3293C56.6487 20.0494 56.877 19.5862 56.8577 19.1002C56.8391 18.6141 56.5735 18.171 56.1548 17.924C52.4946 15.7679 49.4093 15.153 46.9854 16.0943C45.3146 16.7422 44.0211 18.0808 43.1263 20.0823C42.4269 19.6227 42.0489 18.8639 41.953 16.9591C41.9279 16.4515 41.6351 15.9962 41.1849 15.7614C40.7339 15.5266 40.1941 15.5481 39.7632 15.818C36.5233 17.8482 34.8431 20.1604 34.7694 22.6916C34.6613 26.4176 38.1769 28.9589 38.3265 29.0648C38.9715 29.5237 39.8656 29.3719 40.323 28.7269C40.7811 28.082 40.6294 27.1886 39.9851 26.7304C39.9608 26.7133 37.5691 24.9523 37.6321 22.7746C37.6672 21.5742 38.4739 20.4825 39.4769 19.5834C40.1755 21.955 41.7031 22.7167 43.4534 23.3466C43.8228 23.4798 44.2294 23.4561 44.5787 23.28C44.9295 23.1054 45.1922 22.794 45.3075 22.4203C45.9095 20.4596 46.8229 19.229 48.022 18.7637C49.2088 18.3034 50.8503 18.5282 52.8311 19.4159C51.1538 20.9464 49.6512 22.852 48.5581 24.8664C45.4027 30.6683 47.727 39.7017 48.5152 42.3317C49.8703 46.8695 50.8539 54.1024 50.8539 59.5314C50.8539 63.2732 49.4465 68.2484 46.5981 74.6688C46.1779 73.23 45.7713 71.7818 45.3898 70.3286C48.6011 61.3662 48.11 53.2978 48.0864 52.9556C48.0341 52.1675 47.3569 51.5733 46.5638 51.6227C45.7756 51.675 45.1786 52.3565 45.2294 53.1453C45.2337 53.2083 45.5344 58.2787 44.0719 64.639C42.8979 58.6538 42.5113 52.7015 43.991 47.1429C44.1943 46.3791 43.7397 45.5945 42.9752 45.3912C42.2107 45.1887 41.4268 45.6425 41.2235 46.4063C38.8261 55.4153 40.8713 65.0771 43.5264 74.351L39.6479 72.2221C35.4609 60.0447 37.2098 51.4846 38.6293 44.5938C38.95 43.0361 39.2528 41.5664 39.4547 40.1834C40.0223 36.3321 38.1454 32.2139 33.8753 27.9445C29.422 23.4905 24.265 24.4454 24.046 24.4884C23.5907 24.5786 23.2077 24.8828 23.0173 25.3059C22.8269 25.729 22.8534 26.2179 23.0882 26.618C23.9772 28.1342 24.8606 29.233 25.6395 30.203C26.132 30.8165 26.5794 31.372 26.9938 31.9805C26.3095 32.551 25.6158 32.7164 23.8233 33.1437L23.1132 33.3141C22.5906 33.4401 22.1826 33.8489 22.0573 34.3714C21.9321 34.8947 22.1103 35.4431 22.5183 35.7931C26.4605 39.1698 27.7054 39.998 32.891 38.6923C33.6577 38.499 34.123 37.7216 33.9297 36.9542C33.7364 36.1868 32.959 35.723 32.1916 35.9155C29.233 36.6614 28.2809 36.6765 26.5378 35.3937C27.8235 34.9849 28.7341 34.4401 29.8844 33.1187C30.2839 32.6598 30.3498 31.9998 30.0498 31.4715C29.3669 30.2696 28.6074 29.324 27.8722 28.4091C27.603 28.0741 27.3303 27.7341 27.0554 27.3754C28.4284 27.6331 30.1915 28.3096 31.8509 29.9689C34.322 32.4408 37.1561 36.146 36.622 39.7675C36.4323 41.0704 36.1374 42.5013 35.8253 44.0168C34.5224 50.3435 32.7987 58.8084 36.0315 70.237L18.8117 60.7828C16.9791 59.7763 15.8409 57.8535 15.8409 55.7625L15.8409 28.8665C15.8409 26.7762 16.9791 24.8528 18.8109 23.847L43.8657 10.0926C44.7291 9.61873 45.6761 9.38178 46.6225 9.38178C47.5688 9.38178 48.5159 9.61873 49.3785 10.0919L74.4333 23.8463C76.2659 24.8528 77.4041 26.7762 77.4041 28.8665L77.4041 55.7625Z" fill="#000000" fill-rule="nonzero" opacity="1" stroke="none"/>
<path d="M41.7833 42.0489C41.6366 42.8256 42.1477 43.5744 42.9244 43.7212C43.0146 43.7383 43.1034 43.7462 43.1921 43.7462C43.8657 43.7462 44.4671 43.2673 44.5966 42.5808C45.9152 35.6041 43.3467 31.1458 43.2365 30.9597C42.8363 30.2825 41.9666 30.057 41.2851 30.4536C40.6043 30.8502 40.3745 31.7249 40.7668 32.4078C40.7876 32.4444 42.89 36.189 41.7833 42.0489Z" fill="#231f20" fill-rule="nonzero" opacity="1" stroke="none"/>
</g>
<g fill="#231f20" opacity="1" stroke="none">
<path d="M28.3975 93.1198C27.4135 93.1198 26.5255 92.8828 25.7335 92.4088C24.9415 91.9348 24.3145 91.2433 23.8525 90.3343C23.3905 89.4253 23.1595 88.3258 23.1595 87.0358C23.1595 86.0758 23.2945 85.2178 23.5645 84.4618C23.8345 83.7058 24.214 83.0608 24.703 82.5268C25.192 81.9928 25.759 81.5878 26.404 81.3118C27.049 81.0358 27.7435 80.8978 28.4875 80.8978C29.2195 80.8978 29.869 81.0463 30.436 81.3433C31.003 81.6403 31.4635 81.9838 31.8175 82.3738L30.8275 83.5618C30.5215 83.2438 30.181 82.9873 29.806 82.7923C29.431 82.5973 29.0035 82.4998 28.5235 82.4998C27.8395 82.4998 27.2365 82.6813 26.7145 83.0443C26.1925 83.4073 25.7845 83.9233 25.4905 84.5923C25.1965 85.2613 25.0495 86.0578 25.0495 86.9818C25.0495 87.9178 25.189 88.7248 25.468 89.4028C25.747 90.0808 26.143 90.6028 26.656 90.9688C27.169 91.3348 27.7735 91.5178 28.4695 91.5178C29.0155 91.5178 29.5 91.4038 29.923 91.1758C30.346 90.9478 30.7315 90.6418 31.0795 90.2578L32.0695 91.4098C31.6015 91.9558 31.0645 92.3773 30.4585 92.6743C29.8525 92.9713 29.1655 93.1198 28.3975 93.1198Z"/>
<path d="M37.6495 93.1198C36.8515 93.1198 36.1285 92.9368 35.4805 92.5708C34.8325 92.2048 34.318 91.6783 33.937 90.9913C33.556 90.3043 33.3655 89.4778 33.3655 88.5118C33.3655 87.5578 33.5575 86.7358 33.9415 86.0458C34.3255 85.3558 34.8235 84.8233 35.4355 84.4483C36.0475 84.0733 36.6955 83.8858 37.3795 83.8858C38.1535 83.8858 38.8075 84.0598 39.3415 84.4078C39.8755 84.7558 40.279 85.2418 40.552 85.8658C40.825 86.4898 40.9615 87.2158 40.9615 88.0438C40.9615 88.2178 40.954 88.3903 40.939 88.5613C40.924 88.7323 40.9045 88.8718 40.8805 88.9798L34.7875 88.9798L34.7695 87.7198L39.3775 87.7198C39.3775 86.9518 39.211 86.3578 38.878 85.9378C38.545 85.5178 38.0575 85.3078 37.4155 85.3078C37.0315 85.3078 36.6595 85.4173 36.2995 85.6363C35.9395 85.8553 35.6425 86.2003 35.4085 86.6713C35.1745 87.1423 35.0575 87.7558 35.0575 88.5118C35.0575 89.2438 35.1895 89.8438 35.4535 90.3118C35.7175 90.7798 36.064 91.1278 36.493 91.3558C36.922 91.5838 37.3855 91.6978 37.8835 91.6978C38.2855 91.6978 38.656 91.6378 38.995 91.5178C39.334 91.3978 39.6655 91.2358 39.9895 91.0318L40.6195 92.1838C40.2175 92.4478 39.766 92.6698 39.265 92.8498C38.764 93.0298 38.2255 93.1198 37.6495 93.1198Z"/>
<path d="M44.8315 93.1198C44.3935 93.1198 44.041 93.0298 43.774 92.8498C43.507 92.6698 43.3135 92.4103 43.1935 92.0713C43.0735 91.7323 43.0135 91.3258 43.0135 90.8518L43.0135 80.1418L44.8315 80.1418L44.8315 90.9598C44.8315 91.1998 44.8765 91.3708 44.9665 91.4728C45.0565 91.5748 45.1555 91.6258 45.2635 91.6258C45.3115 91.6258 45.358 91.6228 45.403 91.6168C45.448 91.6108 45.5095 91.6018 45.5875 91.5898L45.8215 92.9578C45.7075 92.9998 45.571 93.0373 45.412 93.0703C45.253 93.1033 45.0595 93.1198 44.8315 93.1198Z"/>
<path d="M51.4375 93.1198C50.6395 93.1198 49.9165 92.9368 49.2685 92.5708C48.6205 92.2048 48.106 91.6783 47.725 90.9913C47.344 90.3043 47.1535 89.4778 47.1535 88.5118C47.1535 87.5578 47.3455 86.7358 47.7295 86.0458C48.1135 85.3558 48.6115 84.8233 49.2235 84.4483C49.8355 84.0733 50.4835 83.8858 51.1675 83.8858C51.9415 83.8858 52.5955 84.0598 53.1295 84.4078C53.6635 84.7558 54.067 85.2418 54.34 85.8658C54.613 86.4898 54.7495 87.2158 54.7495 88.0438C54.7495 88.2178 54.742 88.3903 54.727 88.5613C54.712 88.7323 54.6925 88.8718 54.6685 88.9798L48.5755 88.9798L48.5575 87.7198L53.1655 87.7198C53.1655 86.9518 52.999 86.3578 52.666 85.9378C52.333 85.5178 51.8455 85.3078 51.2035 85.3078C50.8195 85.3078 50.4475 85.4173 50.0875 85.6363C49.7275 85.8553 49.4305 86.2003 49.1965 86.6713C48.9625 87.1423 48.8455 87.7558 48.8455 88.5118C48.8455 89.2438 48.9775 89.8438 49.2415 90.3118C49.5055 90.7798 49.852 91.1278 50.281 91.3558C50.71 91.5838 51.1735 91.6978 51.6715 91.6978C52.0735 91.6978 52.444 91.6378 52.783 91.5178C53.122 91.3978 53.4535 91.2358 53.7775 91.0318L54.4075 92.1838C54.0055 92.4478 53.554 92.6698 53.053 92.8498C52.552 93.0298 52.0135 93.1198 51.4375 93.1198Z"/>
<path d="M56.8015 92.9038L56.8015 84.1018L58.2955 84.1018L58.4395 85.6858L58.4935 85.6858C58.8055 85.1158 59.1805 84.6733 59.6185 84.3583C60.0565 84.0433 60.5155 83.8858 60.9955 83.8858C61.2055 83.8858 61.387 83.8993 61.54 83.9263C61.693 83.9533 61.8355 83.9998 61.9675 84.0658L61.6435 85.6498C61.4935 85.6018 61.3555 85.5658 61.2295 85.5418C61.1035 85.5178 60.9475 85.5058 60.7615 85.5058C60.4015 85.5058 60.025 85.6468 59.632 85.9288C59.239 86.2108 58.9015 86.7058 58.6195 87.4138L58.6195 92.9038L56.8015 92.9038Z"/>
<path d="M64.0735 96.5938C63.8515 96.5938 63.652 96.5758 63.475 96.5398C63.298 96.5038 63.1315 96.4618 62.9755 96.4138L63.3175 94.9918C63.4075 95.0158 63.5125 95.0428 63.6325 95.0728C63.7525 95.1028 63.8635 95.1178 63.9655 95.1178C64.4455 95.1178 64.8355 94.9588 65.1355 94.6408C65.4355 94.3228 65.6635 93.9238 65.8195 93.4438L65.9995 92.8498L62.5075 84.1018L64.3615 84.1018L65.9995 88.6558C66.1375 89.0398 66.274 89.4448 66.409 89.8708C66.544 90.2968 66.6775 90.7198 66.8095 91.1398L66.8815 91.1398C67.0015 90.7318 67.12 90.3148 67.237 89.8888C67.354 89.4628 67.4695 89.0518 67.5835 88.6558L69.0055 84.1018L70.7695 84.1018L67.5295 93.4438C67.3015 94.0678 67.0375 94.6168 66.7375 95.0908C66.4375 95.5648 66.073 95.9338 65.644 96.1978C65.215 96.4618 64.6915 96.5938 64.0735 96.5938Z"/>
</g>
</g>
</svg>
